{
	"credit": "Made with Blockbench",
	"textures": {
		"0": "ava:item/gun_textures/palette_frost",
		"particle": "ava:item/gun_textures/palette_frost"
	},
	"elements": [
		{
			"name": "MP5K Hanami mag_0",
			"from": [7.5, 3.63219, 5.1273],
			"to": [8.5, 6.97759, 5.49226],
			"rotation": {"angle": 0, "axis": "y", "origin": [7.48835, 4.008, 5.00252]},
			"faces": {
				"north": {"uv": [2, 0.46875, 2.34375, 0.96875], "texture": "#0"},
				"east": {"uv": [2, 0.46875, 2.34375, 0.96875], "texture": "#0"},
				"south": {"uv": [2, 0.46875, 2.34375, 0.96875], "texture": "#0"},
				"west": {"uv": [2, 0.46875, 2.34375, 0.96875], "texture": "#0"},
				"up": {"uv": [2, 0.46875, 2.34375, 0.96875], "texture": "#0"},
				"down": {"uv": [2, 0.46875, 2.34375, 0.96875], "texture": "#0"}
			}
		},
		{
			"name": "MP5K Hanami mag_1",
			"from": [7.5, 4.59987, 5.49226],
			"to": [8.5, 6.94995, 5.85721],
			"rotation": {"angle": 0, "axis": "y", "origin": [7.48835, 4.008, 5.00252]},
			"faces": {
				"north": {"uv": [2, 0.46875, 2.34375, 0.96875], "texture": "#0"},
				"east": {"uv": [2, 0.46875, 2.34375, 0.96875], "texture": "#0"},
				"south": {"uv": [2, 0.46875, 2.34375, 0.96875], "texture": "#0"},
				"west": {"uv": [2, 0.46875, 2.34375, 0.96875], "texture": "#0"},
				"up": {"uv": [2, 0.46875, 2.34375, 0.96875], "texture": "#0"},
				"down": {"uv": [2, 0.46875, 2.34375, 0.96875], "texture": "#0"}
			}
		},
		{
			"name": "MP5K Hanami mag_2",
			"from": [7.5, 6.87487, 5.13476],
			"to": [8.5, 8.22495, 6.50976],
			"rotation": {"angle": 0, "axis": "y", "origin": [7.48835, 6.283, 4.64502]},
			"faces": {
				"north": {"uv": [2, 0.46875, 2.34375, 0.96875], "texture": "#0"},
				"east": {"uv": [2, 0.46875, 2.34375, 0.96875], "texture": "#0"},
				"south": {"uv": [2, 0.46875, 2.34375, 0.96875], "texture": "#0"},
				"west": {"uv": [2, 0.46875, 2.34375, 0.96875], "texture": "#0"},
				"up": {"uv": [2, 0.46875, 2.34375, 0.96875], "texture": "#0"},
				"down": {"uv": [2, 0.46875, 2.34375, 0.96875], "texture": "#0"}
			}
		},
		{
			"name": "MP5K Hanami mag_2",
			"from": [7.5, 5.5399, 5.85721],
			"to": [8.5, 6.9223, 6.13092],
			"rotation": {"angle": 0, "axis": "y", "origin": [7.48835, 4.008, 5.00252]},
			"faces": {
				"north": {"uv": [2, 0.46875, 2.34375, 0.96875], "texture": "#0"},
				"east": {"uv": [2, 0.46875, 2.34375, 0.96875], "texture": "#0"},
				"south": {"uv": [2, 0.46875, 2.34375, 0.96875], "texture": "#0"},
				"west": {"uv": [2, 0.46875, 2.34375, 0.96875], "texture": "#0"},
				"up": {"uv": [2, 0.46875, 2.34375, 0.96875], "texture": "#0"},
				"down": {"uv": [2, 0.46875, 2.34375, 0.96875], "texture": "#0"}
			}
		},
		{
			"name": "MP5K Hanami mag_3",
			"from": [7.5, 2.80275, 5.09689],
			"to": [8.5, 6.89465, 5.1273],
			"rotation": {"angle": 0, "axis": "y", "origin": [7.48835, 4.008, 5.00252]},
			"faces": {
				"north": {"uv": [2, 0, 3, 1], "texture": "#0"},
				"east": {"uv": [2, 0, 3, 1], "texture": "#0"},
				"south": {"uv": [2, 0, 3, 1], "texture": "#0"},
				"west": {"uv": [2, 0, 3, 1], "texture": "#0"},
				"up": {"uv": [2, 0, 3, 1], "texture": "#0"},
				"down": {"uv": [2, 0, 3, 1], "texture": "#0"}
			}
		},
		{
			"name": "MP5K Hanami mag_4",
			"from": [7.5, 6.45228, 6.13092],
			"to": [8.5, 6.89465, 6.40464],
			"rotation": {"angle": 0, "axis": "y", "origin": [7.48835, 4.008, 5.00252]},
			"faces": {
				"north": {"uv": [2, 0.46875, 2.34375, 0.96875], "texture": "#0"},
				"east": {"uv": [2, 0.46875, 2.34375, 0.96875], "texture": "#0"},
				"south": {"uv": [2, 0.46875, 2.34375, 0.96875], "texture": "#0"},
				"west": {"uv": [2, 0.46875, 2.34375, 0.96875], "texture": "#0"},
				"up": {"uv": [2, 0.46875, 2.34375, 0.96875], "texture": "#0"},
				"down": {"uv": [2, 0.46875, 2.34375, 0.96875], "texture": "#0"}
			}
		},
		{
			"name": "MP5K Hanami mag_5",
			"from": [7.5, 6.75641, 6.40464],
			"to": [8.5, 6.867, 6.46547],
			"rotation": {"angle": 0, "axis": "y", "origin": [7.48835, 4.008, 5.00252]},
			"faces": {
				"north": {"uv": [2, 0.75, 2.40625, 1], "texture": "#0"},
				"east": {"uv": [2, 0.75, 2.40625, 1], "texture": "#0"},
				"south": {"uv": [2, 0.75, 2.40625, 1], "texture": "#0"},
				"west": {"uv": [2, 0.75, 2.40625, 1], "texture": "#0"},
				"up": {"uv": [2, 0.75, 2.40625, 1], "texture": "#0"},
				"down": {"uv": [2, 0.75, 2.40625, 1], "texture": "#0"}
			}
		},
		{
			"name": "MP5K Hanami mag_6",
			"from": [7.5, 6.83935, 6.46547],
			"to": [8.5, 6.867, 6.49588],
			"rotation": {"angle": 0, "axis": "y", "origin": [7.48835, 4.008, 5.00252]},
			"faces": {
				"north": {"uv": [2, 0, 3, 1], "texture": "#0"},
				"east": {"uv": [2, 0, 3, 1], "texture": "#0"},
				"south": {"uv": [2, 0, 3, 1], "texture": "#0"},
				"west": {"uv": [2, 0, 3, 1], "texture": "#0"},
				"up": {"uv": [2, 0, 3, 1], "texture": "#0"},
				"down": {"uv": [2, 0, 3, 1], "texture": "#0"}
			}
		},
		{
			"name": "MP5K Hanami mag_7",
			"from": [7.5, 2.74745, 5.06648],
			"to": [8.5, 6.75641, 5.09689],
			"rotation": {"angle": 0, "axis": "y", "origin": [7.48835, 4.008, 5.00252]},
			"faces": {
				"north": {"uv": [2, 0, 3, 1], "texture": "#0"},
				"east": {"uv": [2, 0, 3, 1], "texture": "#0"},
				"south": {"uv": [2, 0, 3, 1], "texture": "#0"},
				"west": {"uv": [2, 0, 3, 1], "texture": "#0"},
				"up": {"uv": [2, 0, 3, 1], "texture": "#0"},
				"down": {"uv": [2, 0, 3, 1], "texture": "#0"}
			}
		},
		{
			"name": "MP5K Hanami mag_8",
			"from": [7.5, 6.61817, 6.40464],
			"to": [8.5, 6.75641, 6.43505],
			"rotation": {"angle": 0, "axis": "y", "origin": [7.48835, 4.008, 5.00252]},
			"faces": {
				"north": {"uv": [2, 0.75, 2.40625, 1], "texture": "#0"},
				"east": {"uv": [2, 0.75, 2.40625, 1], "texture": "#0"},
				"south": {"uv": [2, 0.75, 2.40625, 1], "texture": "#0"},
				"west": {"uv": [2, 0.75, 2.40625, 1], "texture": "#0"},
				"up": {"uv": [2, 0.75, 2.40625, 1], "texture": "#0"},
				"down": {"uv": [2, 0.75, 2.40625, 1], "texture": "#0"}
			}
		},
		{
			"name": "MP5K Hanami mag_9",
			"from": [7.5, 2.69215, 5.03606],
			"to": [8.5, 6.67347, 5.06648],
			"rotation": {"angle": 0, "axis": "y", "origin": [7.48835, 4.008, 5.00252]},
			"faces": {
				"north": {"uv": [2, 0, 3, 1], "texture": "#0"},
				"east": {"uv": [2, 0, 3, 1], "texture": "#0"},
				"south": {"uv": [2, 0, 3, 1], "texture": "#0"},
				"west": {"uv": [2, 0, 3, 1], "texture": "#0"},
				"up": {"uv": [2, 0, 3, 1], "texture": "#0"},
				"down": {"uv": [2, 0, 3, 1], "texture": "#0"}
			}
		},
		{
			"name": "MP5K Hanami mag_10",
			"from": [7.5, 2.63686, 5.00565],
			"to": [8.5, 6.50758, 5.03606],
			"rotation": {"angle": 0, "axis": "y", "origin": [7.48835, 4.008, 5.00252]},
			"faces": {
				"north": {"uv": [2, 0, 3, 1], "texture": "#0"},
				"east": {"uv": [2, 0, 3, 1], "texture": "#0"},
				"south": {"uv": [2, 0, 3, 1], "texture": "#0"},
				"west": {"uv": [2, 0, 3, 1], "texture": "#0"},
				"up": {"uv": [2, 0, 3, 1], "texture": "#0"},
				"down": {"uv": [2, 0, 3, 1], "texture": "#0"}
			}
		},
		{
			"name": "MP5K Hanami mag_11",
			"from": [7.5, 6.28639, 6.13092],
			"to": [8.5, 6.45228, 6.34381],
			"rotation": {"angle": 0, "axis": "y", "origin": [7.48835, 4.008, 5.00252]},
			"faces": {
				"north": {"uv": [2, 0.625, 2.3125, 1], "texture": "#0"},
				"east": {"uv": [2, 0.625, 2.3125, 1], "texture": "#0"},
				"south": {"uv": [2, 0.625, 2.3125, 1], "texture": "#0"},
				"west": {"uv": [2, 0.625, 2.3125, 1], "texture": "#0"},
				"up": {"uv": [2, 0.625, 2.3125, 1], "texture": "#0"},
				"down": {"uv": [2, 0.625, 2.3125, 1], "texture": "#0"}
			}
		},
		{
			"name": "MP5K Hanami mag_12",
			"from": [7.5, 6.36934, 6.34381],
			"to": [8.5, 6.45228, 6.37423],
			"rotation": {"angle": 0, "axis": "y", "origin": [7.48835, 4.008, 5.00252]},
			"faces": {
				"north": {"uv": [2, 0.75, 2.40625, 1], "texture": "#0"},
				"east": {"uv": [2, 0.75, 2.40625, 1], "texture": "#0"},
				"south": {"uv": [2, 0.75, 2.40625, 1], "texture": "#0"},
				"west": {"uv": [2, 0.75, 2.40625, 1], "texture": "#0"},
				"up": {"uv": [2, 0.75, 2.40625, 1], "texture": "#0"},
				"down": {"uv": [2, 0.75, 2.40625, 1], "texture": "#0"}
			}
		},
		{
			"name": "MP5K Hanami mag_13",
			"from": [7.5, 2.58156, 4.97524],
			"to": [8.5, 6.36934, 5.00565],
			"rotation": {"angle": 0, "axis": "y", "origin": [7.48835, 4.008, 5.00252]},
			"faces": {
				"north": {"uv": [2, 0, 3, 1], "texture": "#0"},
				"east": {"uv": [2, 0, 3, 1], "texture": "#0"},
				"south": {"uv": [2, 0, 3, 1], "texture": "#0"},
				"west": {"uv": [2, 0, 3, 1], "texture": "#0"},
				"up": {"uv": [2, 0, 3, 1], "texture": "#0"},
				"down": {"uv": [2, 0, 3, 1], "texture": "#0"}
			}
		},
		{
			"name": "MP5K Hanami mag_14",
			"from": [7.5, 6.06521, 6.13092],
			"to": [8.5, 6.28639, 6.28299],
			"rotation": {"angle": 0, "axis": "y", "origin": [7.48835, 4.008, 5.00252]},
			"faces": {
				"north": {"uv": [2, 0.625, 2.3125, 1], "texture": "#0"},
				"east": {"uv": [2, 0.625, 2.3125, 1], "texture": "#0"},
				"south": {"uv": [2, 0.625, 2.3125, 1], "texture": "#0"},
				"west": {"uv": [2, 0.625, 2.3125, 1], "texture": "#0"},
				"up": {"uv": [2, 0.625, 2.3125, 1], "texture": "#0"},
				"down": {"uv": [2, 0.625, 2.3125, 1], "texture": "#0"}
			}
		},
		{
			"name": "MP5K Hanami mag_15",
			"from": [7.5, 6.1758, 6.28299],
			"to": [8.5, 6.28639, 6.3134],
			"rotation": {"angle": 0, "axis": "y", "origin": [7.48835, 4.008, 5.00252]},
			"faces": {
				"north": {"uv": [2, 0.75, 2.40625, 1], "texture": "#0"},
				"east": {"uv": [2, 0.75, 2.40625, 1], "texture": "#0"},
				"south": {"uv": [2, 0.75, 2.40625, 1], "texture": "#0"},
				"west": {"uv": [2, 0.75, 2.40625, 1], "texture": "#0"},
				"up": {"uv": [2, 0.75, 2.40625, 1], "texture": "#0"},
				"down": {"uv": [2, 0.75, 2.40625, 1], "texture": "#0"}
			}
		},
		{
			"name": "MP5K Hanami mag_16",
			"from": [7.5, 2.52627, 4.94483],
			"to": [8.5, 6.25875, 4.97524],
			"rotation": {"angle": 0, "axis": "y", "origin": [7.48835, 4.008, 5.00252]},
			"faces": {
				"north": {"uv": [2, 0, 3, 1], "texture": "#0"},
				"east": {"uv": [2, 0, 3, 1], "texture": "#0"},
				"south": {"uv": [2, 0, 3, 1], "texture": "#0"},
				"west": {"uv": [2, 0, 3, 1], "texture": "#0"},
				"up": {"uv": [2, 0, 3, 1], "texture": "#0"},
				"down": {"uv": [2, 0, 3, 1], "texture": "#0"}
			}
		},
		{
			"name": "MP5K Hanami mag_17",
			"from": [7.5, 2.47097, 4.91441],
			"to": [8.5, 6.14815, 4.94483],
			"rotation": {"angle": 0, "axis": "y", "origin": [7.48835, 4.008, 5.00252]},
			"faces": {
				"north": {"uv": [2, 0, 3, 1], "texture": "#0"},
				"east": {"uv": [2, 0, 3, 1], "texture": "#0"},
				"south": {"uv": [2, 0, 3, 1], "texture": "#0"},
				"west": {"uv": [2, 0, 3, 1], "texture": "#0"},
				"up": {"uv": [2, 0, 3, 1], "texture": "#0"},
				"down": {"uv": [2, 0, 3, 1], "texture": "#0"}
			}
		},
		{
			"name": "MP5K Hanami mag_18",
			"from": [7.5, 5.98227, 6.13092],
			"to": [8.5, 6.06521, 6.25258],
			"rotation": {"angle": 0, "axis": "y", "origin": [7.48835, 4.008, 5.00252]},
			"faces": {
				"north": {"uv": [2, 0.75, 2.40625, 1], "texture": "#0"},
				"east": {"uv": [2, 0.75, 2.40625, 1], "texture": "#0"},
				"south": {"uv": [2, 0.75, 2.40625, 1], "texture": "#0"},
				"west": {"uv": [2, 0.75, 2.40625, 1], "texture": "#0"},
				"up": {"uv": [2, 0.75, 2.40625, 1], "texture": "#0"},
				"down": {"uv": [2, 0.75, 2.40625, 1], "texture": "#0"}
			}
		},
		{
			"name": "MP5K Hanami mag_19",
			"from": [7.5, 2.41567, 4.884],
			"to": [8.5, 6.00991, 4.91441],
			"rotation": {"angle": 0, "axis": "y", "origin": [7.48835, 4.008, 5.00252]},
			"faces": {
				"north": {"uv": [2, 0, 3, 1], "texture": "#0"},
				"east": {"uv": [2, 0, 3, 1], "texture": "#0"},
				"south": {"uv": [2, 0, 3, 1], "texture": "#0"},
				"west": {"uv": [2, 0, 3, 1], "texture": "#0"},
				"up": {"uv": [2, 0, 3, 1], "texture": "#0"},
				"down": {"uv": [2, 0, 3, 1], "texture": "#0"}
			}
		},
		{
			"name": "MP5K Hanami mag_20",
			"from": [7.5, 5.87167, 6.13092],
			"to": [8.5, 5.98227, 6.22216],
			"rotation": {"angle": 0, "axis": "y", "origin": [7.48835, 4.008, 5.00252]},
			"faces": {
				"north": {"uv": [2, 0.625, 2.3125, 1], "texture": "#0"},
				"east": {"uv": [2, 0.625, 2.3125, 1], "texture": "#0"},
				"south": {"uv": [2, 0.625, 2.3125, 1], "texture": "#0"},
				"west": {"uv": [2, 0.625, 2.3125, 1], "texture": "#0"},
				"up": {"uv": [2, 0.625, 2.3125, 1], "texture": "#0"},
				"down": {"uv": [2, 0.625, 2.3125, 1], "texture": "#0"}
			}
		},
		{
			"name": "MP5K Hanami mag_21",
			"from": [7.5, 5.73343, 6.13092],
			"to": [8.5, 5.87167, 6.19175],
			"rotation": {"angle": 0, "axis": "y", "origin": [7.48835, 4.008, 5.00252]},
			"faces": {
				"north": {"uv": [2, 0.75, 2.40625, 1], "texture": "#0"},
				"east": {"uv": [2, 0.75, 2.40625, 1], "texture": "#0"},
				"south": {"uv": [2, 0.75, 2.40625, 1], "texture": "#0"},
				"west": {"uv": [2, 0.75, 2.40625, 1], "texture": "#0"},
				"up": {"uv": [2, 0.75, 2.40625, 1], "texture": "#0"},
				"down": {"uv": [2, 0.75, 2.40625, 1], "texture": "#0"}
			}
		},
		{
			"name": "MP5K Hanami mag_22",
			"from": [7.5, 2.36038, 4.85359],
			"to": [8.5, 5.84403, 4.884],
			"rotation": {"angle": 0, "axis": "y", "origin": [7.48835, 4.008, 5.00252]},
			"faces": {
				"north": {"uv": [2, 0, 3, 1], "texture": "#0"},
				"east": {"uv": [2, 0, 3, 1], "texture": "#0"},
				"south": {"uv": [2, 0, 3, 1], "texture": "#0"},
				"west": {"uv": [2, 0, 3, 1], "texture": "#0"},
				"up": {"uv": [2, 0, 3, 1], "texture": "#0"},
				"down": {"uv": [2, 0, 3, 1], "texture": "#0"}
			}
		},
		{
			"name": "MP5K Hanami mag_23",
			"from": [7.5, 2.27743, 4.82317],
			"to": [8.5, 5.73343, 4.85359],
			"rotation": {"angle": 0, "axis": "y", "origin": [7.48835, 4.008, 5.00252]},
			"faces": {
				"north": {"uv": [2, 0, 3, 1], "texture": "#0"},
				"east": {"uv": [2, 0, 3, 1], "texture": "#0"},
				"south": {"uv": [2, 0, 3, 1], "texture": "#0"},
				"west": {"uv": [2, 0, 3, 1], "texture": "#0"},
				"up": {"uv": [2, 0, 3, 1], "texture": "#0"},
				"down": {"uv": [2, 0, 3, 1], "texture": "#0"}
			}
		},
		{
			"name": "MP5K Hanami mag_24",
			"from": [7.5, 5.59519, 6.13092],
			"to": [8.5, 5.73343, 6.16134],
			"rotation": {"angle": 0, "axis": "y", "origin": [7.48835, 4.008, 5.00252]},
			"faces": {
				"north": {"uv": [2, 0.75, 2.40625, 1], "texture": "#0"},
				"east": {"uv": [2, 0.75, 2.40625, 1], "texture": "#0"},
				"south": {"uv": [2, 0.75, 2.40625, 1], "texture": "#0"},
				"west": {"uv": [2, 0.75, 2.40625, 1], "texture": "#0"},
				"up": {"uv": [2, 0.75, 2.40625, 1], "texture": "#0"},
				"down": {"uv": [2, 0.75, 2.40625, 1], "texture": "#0"}
			}
		},
		{
			"name": "MP5K Hanami mag_25",
			"from": [7.5, 2.22214, 4.79276],
			"to": [8.5, 5.65049, 4.82317],
			"rotation": {"angle": 0, "axis": "y", "origin": [7.48835, 4.008, 5.00252]},
			"faces": {
				"north": {"uv": [2, 0, 3, 1], "texture": "#0"},
				"east": {"uv": [2, 0, 3, 1], "texture": "#0"},
				"south": {"uv": [2, 0, 3, 1], "texture": "#0"},
				"west": {"uv": [2, 0, 3, 1], "texture": "#0"},
				"up": {"uv": [2, 0, 3, 1], "texture": "#0"},
				"down": {"uv": [2, 0, 3, 1], "texture": "#0"}
			}
		},
		{
			"name": "MP5K Hanami mag_26",
			"from": [7.5, 2.16684, 4.76235],
			"to": [8.5, 5.56755, 4.79276],
			"rotation": {"angle": 0, "axis": "y", "origin": [7.48835, 4.008, 5.00252]},
			"faces": {
				"north": {"uv": [2, 0, 3, 1], "texture": "#0"},
				"east": {"uv": [2, 0, 3, 1], "texture": "#0"},
				"south": {"uv": [2, 0, 3, 1], "texture": "#0"},
				"west": {"uv": [2, 0, 3, 1], "texture": "#0"},
				"up": {"uv": [2, 0, 3, 1], "texture": "#0"},
				"down": {"uv": [2, 0, 3, 1], "texture": "#0"}
			}
		},
		{
			"name": "MP5K Hanami mag_27",
			"from": [7.5, 5.29107, 5.85721],
			"to": [8.5, 5.5399, 6.0701],
			"rotation": {"angle": 0, "axis": "y", "origin": [7.48835, 4.008, 5.00252]},
			"faces": {
				"north": {"uv": [2, 0.625, 2.3125, 1], "texture": "#0"},
				"east": {"uv": [2, 0.625, 2.3125, 1], "texture": "#0"},
				"south": {"uv": [2, 0.625, 2.3125, 1], "texture": "#0"},
				"west": {"uv": [2, 0.625, 2.3125, 1], "texture": "#0"},
				"up": {"uv": [2, 0.625, 2.3125, 1], "texture": "#0"},
				"down": {"uv": [2, 0.625, 2.3125, 1], "texture": "#0"}
			}
		},
		{
			"name": "MP5K Hanami mag_28",
			"from": [7.5, 5.42931, 6.0701],
			"to": [8.5, 5.5399, 6.10051],
			"rotation": {"angle": 0, "axis": "y", "origin": [7.48835, 4.008, 5.00252]},
			"faces": {
				"north": {"uv": [2, 0.75, 2.40625, 1], "texture": "#0"},
				"east": {"uv": [2, 0.75, 2.40625, 1], "texture": "#0"},
				"south": {"uv": [2, 0.75, 2.40625, 1], "texture": "#0"},
				"west": {"uv": [2, 0.75, 2.40625, 1], "texture": "#0"},
				"up": {"uv": [2, 0.75, 2.40625, 1], "texture": "#0"},
				"down": {"uv": [2, 0.75, 2.40625, 1], "texture": "#0"}
			}
		},
		{
			"name": "MP5K Hanami mag_29",
			"from": [7.5, 2.11155, 4.73194],
			"to": [8.5, 5.37401, 4.76235],
			"rotation": {"angle": 0, "axis": "y", "origin": [7.48835, 4.008, 5.00252]},
			"faces": {
				"north": {"uv": [2, 0, 3, 1], "texture": "#0"},
				"east": {"uv": [2, 0, 3, 1], "texture": "#0"},
				"south": {"uv": [2, 0, 3, 1], "texture": "#0"},
				"west": {"uv": [2, 0, 3, 1], "texture": "#0"},
				"up": {"uv": [2, 0, 3, 1], "texture": "#0"},
				"down": {"uv": [2, 0, 3, 1], "texture": "#0"}
			}
		},
		{
			"name": "MP5K Hanami mag_30",
			"from": [7.5, 2.05625, 4.70152],
			"to": [8.5, 5.29107, 4.73194],
			"rotation": {"angle": 0, "axis": "y", "origin": [7.48835, 4.008, 5.00252]},
			"faces": {
				"north": {"uv": [2, 0, 3, 1], "texture": "#0"},
				"east": {"uv": [2, 0, 3, 1], "texture": "#0"},
				"south": {"uv": [2, 0, 3, 1], "texture": "#0"},
				"west": {"uv": [2, 0, 3, 1], "texture": "#0"},
				"up": {"uv": [2, 0, 3, 1], "texture": "#0"},
				"down": {"uv": [2, 0, 3, 1], "texture": "#0"}
			}
		},
		{
			"name": "MP5K Hanami mag_31",
			"from": [7.5, 5.09753, 5.85721],
			"to": [8.5, 5.29107, 6.00927],
			"rotation": {"angle": 0, "axis": "y", "origin": [7.48835, 4.008, 5.00252]},
			"faces": {
				"north": {"uv": [2, 0.625, 2.3125, 1], "texture": "#0"},
				"east": {"uv": [2, 0.625, 2.3125, 1], "texture": "#0"},
				"south": {"uv": [2, 0.625, 2.3125, 1], "texture": "#0"},
				"west": {"uv": [2, 0.625, 2.3125, 1], "texture": "#0"},
				"up": {"uv": [2, 0.625, 2.3125, 1], "texture": "#0"},
				"down": {"uv": [2, 0.625, 2.3125, 1], "texture": "#0"}
			}
		},
		{
			"name": "MP5K Hanami mag_32",
			"from": [7.5, 5.18047, 6.00927],
			"to": [8.5, 5.29107, 6.03969],
			"rotation": {"angle": 0, "axis": "y", "origin": [7.48835, 4.008, 5.00252]},
			"faces": {
				"north": {"uv": [2, 0.75, 2.40625, 1], "texture": "#0"},
				"east": {"uv": [2, 0.75, 2.40625, 1], "texture": "#0"},
				"south": {"uv": [2, 0.75, 2.40625, 1], "texture": "#0"},
				"west": {"uv": [2, 0.75, 2.40625, 1], "texture": "#0"},
				"up": {"uv": [2, 0.75, 2.40625, 1], "texture": "#0"},
				"down": {"uv": [2, 0.75, 2.40625, 1], "texture": "#0"}
			}
		},
		{
			"name": "MP5K Hanami mag_33",
			"from": [7.5, 2.00095, 4.67111],
			"to": [8.5, 5.15283, 4.70152],
			"rotation": {"angle": 0, "axis": "y", "origin": [7.48835, 4.008, 5.00252]},
			"faces": {
				"north": {"uv": [2, 0, 3, 1], "texture": "#0"},
				"east": {"uv": [2, 0, 3, 1], "texture": "#0"},
				"south": {"uv": [2, 0, 3, 1], "texture": "#0"},
				"west": {"uv": [2, 0, 3, 1], "texture": "#0"},
				"up": {"uv": [2, 0, 3, 1], "texture": "#0"},
				"down": {"uv": [2, 0, 3, 1], "texture": "#0"}
			}
		},
		{
			"name": "MP5K Hanami mag_34",
			"from": [7.5, 4.95929, 5.85721],
			"to": [8.5, 5.09753, 5.97886],
			"rotation": {"angle": 0, "axis": "y", "origin": [7.48835, 4.008, 5.00252]},
			"faces": {
				"north": {"uv": [2, 0.625, 2.3125, 1], "texture": "#0"},
				"east": {"uv": [2, 0.625, 2.3125, 1], "texture": "#0"},
				"south": {"uv": [2, 0.625, 2.3125, 1], "texture": "#0"},
				"west": {"uv": [2, 0.625, 2.3125, 1], "texture": "#0"},
				"up": {"uv": [2, 0.625, 2.3125, 1], "texture": "#0"},
				"down": {"uv": [2, 0.625, 2.3125, 1], "texture": "#0"}
			}
		},
		{
			"name": "MP5K Hanami mag_35",
			"from": [7.5, 1.97331, 4.6407],
			"to": [8.5, 5.04223, 4.67111],
			"rotation": {"angle": 0, "axis": "y", "origin": [7.48835, 4.008, 5.00252]},
			"faces": {
				"north": {"uv": [2, 0, 3, 1], "texture": "#0"},
				"east": {"uv": [2, 0, 3, 1], "texture": "#0"},
				"south": {"uv": [2, 0, 3, 1], "texture": "#0"},
				"west": {"uv": [2, 0, 3, 1], "texture": "#0"},
				"up": {"uv": [2, 0, 3, 1], "texture": "#0"},
				"down": {"uv": [2, 0, 3, 1], "texture": "#0"}
			}
		},
		{
			"name": "MP5K Hanami mag_36",
			"from": [7.5, 1.97331, 4.61028],
			"to": [8.5, 4.95929, 4.6407],
			"rotation": {"angle": 0, "axis": "y", "origin": [7.48835, 4.008, 5.00252]},
			"faces": {
				"north": {"uv": [2, 0, 3, 1], "texture": "#0"},
				"east": {"uv": [2, 0, 3, 1], "texture": "#0"},
				"south": {"uv": [2, 0, 3, 1], "texture": "#0"},
				"west": {"uv": [2, 0, 3, 1], "texture": "#0"},
				"up": {"uv": [2, 0, 3, 1], "texture": "#0"},
				"down": {"uv": [2, 0, 3, 1], "texture": "#0"}
			}
		},
		{
			"name": "MP5K Hanami mag_37",
			"from": [7.5, 4.8487, 5.85721],
			"to": [8.5, 4.95929, 5.94845],
			"rotation": {"angle": 0, "axis": "y", "origin": [7.48835, 4.008, 5.00252]},
			"faces": {
				"north": {"uv": [2, 0.625, 2.3125, 1], "texture": "#0"},
				"east": {"uv": [2, 0.625, 2.3125, 1], "texture": "#0"},
				"south": {"uv": [2, 0.625, 2.3125, 1], "texture": "#0"},
				"west": {"uv": [2, 0.625, 2.3125, 1], "texture": "#0"},
				"up": {"uv": [2, 0.625, 2.3125, 1], "texture": "#0"},
				"down": {"uv": [2, 0.625, 2.3125, 1], "texture": "#0"}
			}
		},
		{
			"name": "MP5K Hanami mag_38",
			"from": [7.5, 1.97331, 4.57987],
			"to": [8.5, 4.87635, 4.61028],
			"rotation": {"angle": 0, "axis": "y", "origin": [7.48835, 4.008, 5.00252]},
			"faces": {
				"north": {"uv": [2, 0, 3, 1], "texture": "#0"},
				"east": {"uv": [2, 0, 3, 1], "texture": "#0"},
				"south": {"uv": [2, 0, 3, 1], "texture": "#0"},
				"west": {"uv": [2, 0, 3, 1], "texture": "#0"},
				"up": {"uv": [2, 0, 3, 1], "texture": "#0"},
				"down": {"uv": [2, 0, 3, 1], "texture": "#0"}
			}
		},
		{
			"name": "MP5K Hanami mag_39",
			"from": [7.5, 4.76575, 5.85721],
			"to": [8.5, 4.8487, 5.91803],
			"rotation": {"angle": 0, "axis": "y", "origin": [7.48835, 4.008, 5.00252]},
			"faces": {
				"north": {"uv": [2, 0.625, 2.3125, 1], "texture": "#0"},
				"east": {"uv": [2, 0.625, 2.3125, 1], "texture": "#0"},
				"south": {"uv": [2, 0.625, 2.3125, 1], "texture": "#0"},
				"west": {"uv": [2, 0.625, 2.3125, 1], "texture": "#0"},
				"up": {"uv": [2, 0.625, 2.3125, 1], "texture": "#0"},
				"down": {"uv": [2, 0.625, 2.3125, 1], "texture": "#0"}
			}
		},
		{
			"name": "MP5K Hanami mag_40",
			"from": [7.5, 1.97331, 4.54946],
			"to": [8.5, 4.82105, 4.57987],
			"rotation": {"angle": 0, "axis": "y", "origin": [7.48835, 4.008, 5.00252]},
			"faces": {
				"north": {"uv": [2, 0, 3, 1], "texture": "#0"},
				"east": {"uv": [2, 0, 3, 1], "texture": "#0"},
				"south": {"uv": [2, 0, 3, 1], "texture": "#0"},
				"west": {"uv": [2, 0, 3, 1], "texture": "#0"},
				"up": {"uv": [2, 0, 3, 1], "texture": "#0"},
				"down": {"uv": [2, 0, 3, 1], "texture": "#0"}
			}
		},
		{
			"name": "MP5K Hanami mag_41",
			"from": [7.5, 4.71046, 5.85721],
			"to": [8.5, 4.76575, 5.88762],
			"rotation": {"angle": 0, "axis": "y", "origin": [7.48835, 4.008, 5.00252]},
			"faces": {
				"north": {"uv": [2, 0.75, 2.40625, 1], "texture": "#0"},
				"east": {"uv": [2, 0.75, 2.40625, 1], "texture": "#0"},
				"south": {"uv": [2, 0.75, 2.40625, 1], "texture": "#0"},
				"west": {"uv": [2, 0.75, 2.40625, 1], "texture": "#0"},
				"up": {"uv": [2, 0.75, 2.40625, 1], "texture": "#0"},
				"down": {"uv": [2, 0.75, 2.40625, 1], "texture": "#0"}
			}
		},
		{
			"name": "MP5K Hanami mag_42",
			"from": [7.5, 1.97331, 4.51905],
			"to": [8.5, 4.68281, 4.54946],
			"rotation": {"angle": 0, "axis": "y", "origin": [7.48835, 4.008, 5.00252]},
			"faces": {
				"north": {"uv": [2, 0, 3, 1], "texture": "#0"},
				"east": {"uv": [2, 0, 3, 1], "texture": "#0"},
				"south": {"uv": [2, 0, 3, 1], "texture": "#0"},
				"west": {"uv": [2, 0, 3, 1], "texture": "#0"},
				"up": {"uv": [2, 0, 3, 1], "texture": "#0"},
				"down": {"uv": [2, 0, 3, 1], "texture": "#0"}
			}
		},
		{
			"name": "MP5K Hanami mag_43",
			"from": [7.5, 2.00095, 4.48863],
			"to": [8.5, 4.59987, 4.51905],
			"rotation": {"angle": 0, "axis": "y", "origin": [7.48835, 4.008, 5.00252]},
			"faces": {
				"north": {"uv": [2, 0, 3, 1], "texture": "#0"},
				"east": {"uv": [2, 0, 3, 1], "texture": "#0"},
				"south": {"uv": [2, 0, 3, 1], "texture": "#0"},
				"west": {"uv": [2, 0, 3, 1], "texture": "#0"},
				"up": {"uv": [2, 0, 3, 1], "texture": "#0"},
				"down": {"uv": [2, 0, 3, 1], "texture": "#0"}
			}
		},
		{
			"name": "MP5K Hanami mag_44",
			"from": [7.5, 4.32339, 5.49226],
			"to": [8.5, 4.59987, 5.76597],
			"rotation": {"angle": 0, "axis": "y", "origin": [7.48835, 4.008, 5.00252]},
			"faces": {
				"north": {"uv": [2, 0.625, 2.3125, 1], "texture": "#0"},
				"east": {"uv": [2, 0.625, 2.3125, 1], "texture": "#0"},
				"south": {"uv": [2, 0.625, 2.3125, 1], "texture": "#0"},
				"west": {"uv": [2, 0.625, 2.3125, 1], "texture": "#0"},
				"up": {"uv": [2, 0.625, 2.3125, 1], "texture": "#0"},
				"down": {"uv": [2, 0.625, 2.3125, 1], "texture": "#0"}
			}
		},
		{
			"name": "MP5K Hanami mag_45",
			"from": [7.5, 4.48927, 5.76597],
			"to": [8.5, 4.59987, 5.8268],
			"rotation": {"angle": 0, "axis": "y", "origin": [7.48835, 4.008, 5.00252]},
			"faces": {
				"north": {"uv": [2, 0.75, 2.40625, 1], "texture": "#0"},
				"east": {"uv": [2, 0.75, 2.40625, 1], "texture": "#0"},
				"south": {"uv": [2, 0.75, 2.40625, 1], "texture": "#0"},
				"west": {"uv": [2, 0.75, 2.40625, 1], "texture": "#0"},
				"up": {"uv": [2, 0.75, 2.40625, 1], "texture": "#0"},
				"down": {"uv": [2, 0.75, 2.40625, 1], "texture": "#0"}
			}
		},
		{
			"name": "MP5K Hanami mag_46",
			"from": [7.5, 2.0286, 4.45822],
			"to": [8.5, 4.54457, 4.48863],
			"rotation": {"angle": 0, "axis": "y", "origin": [7.48835, 4.008, 5.00252]},
			"faces": {
				"north": {"uv": [2, 0, 3, 1], "texture": "#0"},
				"east": {"uv": [2, 0, 3, 1], "texture": "#0"},
				"south": {"uv": [2, 0, 3, 1], "texture": "#0"},
				"west": {"uv": [2, 0, 3, 1], "texture": "#0"},
				"up": {"uv": [2, 0, 3, 1], "texture": "#0"},
				"down": {"uv": [2, 0, 3, 1], "texture": "#0"}
			}
		},
		{
			"name": "MP5K Hanami mag_47",
			"from": [7.5, 2.0286, 4.42781],
			"to": [8.5, 4.48927, 4.45822],
			"rotation": {"angle": 0, "axis": "y", "origin": [7.48835, 4.008, 5.00252]},
			"faces": {
				"north": {"uv": [2, 0, 3, 1], "texture": "#0"},
				"east": {"uv": [2, 0, 3, 1], "texture": "#0"},
				"south": {"uv": [2, 0, 3, 1], "texture": "#0"},
				"west": {"uv": [2, 0, 3, 1], "texture": "#0"},
				"up": {"uv": [2, 0, 3, 1], "texture": "#0"},
				"down": {"uv": [2, 0, 3, 1], "texture": "#0"}
			}
		},
		{
			"name": "MP5K Hanami mag_48",
			"from": [7.5, 4.40633, 5.76597],
			"to": [8.5, 4.48927, 5.79638],
			"rotation": {"angle": 0, "axis": "y", "origin": [7.48835, 4.008, 5.00252]},
			"faces": {
				"north": {"uv": [2, 0.75, 2.40625, 1], "texture": "#0"},
				"east": {"uv": [2, 0.75, 2.40625, 1], "texture": "#0"},
				"south": {"uv": [2, 0.75, 2.40625, 1], "texture": "#0"},
				"west": {"uv": [2, 0.75, 2.40625, 1], "texture": "#0"},
				"up": {"uv": [2, 0.75, 2.40625, 1], "texture": "#0"},
				"down": {"uv": [2, 0.75, 2.40625, 1], "texture": "#0"}
			}
		},
		{
			"name": "MP5K Hanami mag_49",
			"from": [7.5, 2.05625, 4.39739],
			"to": [8.5, 4.32339, 4.42781],
			"rotation": {"angle": 0, "axis": "y", "origin": [7.48835, 4.008, 5.00252]},
			"faces": {
				"north": {"uv": [2, 0, 3, 1], "texture": "#0"},
				"east": {"uv": [2, 0, 3, 1], "texture": "#0"},
				"south": {"uv": [2, 0, 3, 1], "texture": "#0"},
				"west": {"uv": [2, 0, 3, 1], "texture": "#0"},
				"up": {"uv": [2, 0, 3, 1], "texture": "#0"},
				"down": {"uv": [2, 0, 3, 1], "texture": "#0"}
			}
		},
		{
			"name": "MP5K Hanami mag_50",
			"from": [7.5, 4.1575, 5.49226],
			"to": [8.5, 4.32339, 5.70515],
			"rotation": {"angle": 0, "axis": "y", "origin": [7.48835, 4.008, 5.00252]},
			"faces": {
				"north": {"uv": [2, 0.625, 2.3125, 1], "texture": "#0"},
				"east": {"uv": [2, 0.625, 2.3125, 1], "texture": "#0"},
				"south": {"uv": [2, 0.625, 2.3125, 1], "texture": "#0"},
				"west": {"uv": [2, 0.625, 2.3125, 1], "texture": "#0"},
				"up": {"uv": [2, 0.625, 2.3125, 1], "texture": "#0"},
				"down": {"uv": [2, 0.625, 2.3125, 1], "texture": "#0"}
			}
		},
		{
			"name": "MP5K Hanami mag_51",
			"from": [7.5, 4.24044, 5.70515],
			"to": [8.5, 4.32339, 5.73556],
			"rotation": {"angle": 0, "axis": "y", "origin": [7.48835, 4.008, 5.00252]},
			"faces": {
				"north": {"uv": [2, 0.75, 2.40625, 1], "texture": "#0"},
				"east": {"uv": [2, 0.75, 2.40625, 1], "texture": "#0"},
				"south": {"uv": [2, 0.75, 2.40625, 1], "texture": "#0"},
				"west": {"uv": [2, 0.75, 2.40625, 1], "texture": "#0"},
				"up": {"uv": [2, 0.75, 2.40625, 1], "texture": "#0"},
				"down": {"uv": [2, 0.75, 2.40625, 1], "texture": "#0"}
			}
		},
		{
			"name": "MP5K Hanami mag_52",
			"from": [7.5, 2.05625, 4.36698],
			"to": [8.5, 4.29574, 4.39739],
			"rotation": {"angle": 0, "axis": "y", "origin": [7.48835, 4.008, 5.00252]},
			"faces": {
				"north": {"uv": [2, 0, 3, 1], "texture": "#0"},
				"east": {"uv": [2, 0, 3, 1], "texture": "#0"},
				"south": {"uv": [2, 0, 3, 1], "texture": "#0"},
				"west": {"uv": [2, 0, 3, 1], "texture": "#0"},
				"up": {"uv": [2, 0, 3, 1], "texture": "#0"},
				"down": {"uv": [2, 0, 3, 1], "texture": "#0"}
			}
		},
		{
			"name": "MP5K Hanami mag_53",
			"from": [7.5, 2.0839, 4.33657],
			"to": [8.5, 4.24044, 4.36698],
			"rotation": {"angle": 0, "axis": "y", "origin": [7.48835, 4.008, 5.00252]},
			"faces": {
				"north": {"uv": [2, 0, 3, 1], "texture": "#0"},
				"east": {"uv": [2, 0, 3, 1], "texture": "#0"},
				"south": {"uv": [2, 0, 3, 1], "texture": "#0"},
				"west": {"uv": [2, 0, 3, 1], "texture": "#0"},
				"up": {"uv": [2, 0, 3, 1], "texture": "#0"},
				"down": {"uv": [2, 0, 3, 1], "texture": "#0"}
			}
		},
		{
			"name": "MP5K Hanami mag_54",
			"from": [7.5, 2.0839, 4.30616],
			"to": [8.5, 4.1575, 4.33657],
			"rotation": {"angle": 0, "axis": "y", "origin": [7.48835, 4.008, 5.00252]},
			"faces": {
				"north": {"uv": [2, 0, 3, 1], "texture": "#0"},
				"east": {"uv": [2, 0, 3, 1], "texture": "#0"},
				"south": {"uv": [2, 0, 3, 1], "texture": "#0"},
				"west": {"uv": [2, 0, 3, 1], "texture": "#0"},
				"up": {"uv": [2, 0, 3, 1], "texture": "#0"},
				"down": {"uv": [2, 0, 3, 1], "texture": "#0"}
			}
		},
		{
			"name": "MP5K Hanami mag_55",
			"from": [7.5, 4.01926, 5.49226],
			"to": [8.5, 4.1575, 5.64432],
			"rotation": {"angle": 0, "axis": "y", "origin": [7.48835, 4.008, 5.00252]},
			"faces": {
				"north": {"uv": [2, 0.625, 2.3125, 1], "texture": "#0"},
				"east": {"uv": [2, 0.625, 2.3125, 1], "texture": "#0"},
				"south": {"uv": [2, 0.625, 2.3125, 1], "texture": "#0"},
				"west": {"uv": [2, 0.625, 2.3125, 1], "texture": "#0"},
				"up": {"uv": [2, 0.625, 2.3125, 1], "texture": "#0"},
				"down": {"uv": [2, 0.625, 2.3125, 1], "texture": "#0"}
			}
		},
		{
			"name": "MP5K Hanami mag_56",
			"from": [7.5, 4.1022, 5.64432],
			"to": [8.5, 4.1575, 5.67473],
			"rotation": {"angle": 0, "axis": "y", "origin": [7.48835, 4.008, 5.00252]},
			"faces": {
				"north": {"uv": [2, 0.75, 2.40625, 1], "texture": "#0"},
				"east": {"uv": [2, 0.75, 2.40625, 1], "texture": "#0"},
				"south": {"uv": [2, 0.75, 2.40625, 1], "texture": "#0"},
				"west": {"uv": [2, 0.75, 2.40625, 1], "texture": "#0"},
				"up": {"uv": [2, 0.75, 2.40625, 1], "texture": "#0"},
				"down": {"uv": [2, 0.75, 2.40625, 1], "texture": "#0"}
			}
		},
		{
			"name": "MP5K Hanami mag_57",
			"from": [7.5, 2.11155, 4.27574],
			"to": [8.5, 4.07455, 4.30616],
			"rotation": {"angle": 0, "axis": "y", "origin": [7.48835, 4.008, 5.00252]},
			"faces": {
				"north": {"uv": [2, 0, 3, 1], "texture": "#0"},
				"east": {"uv": [2, 0, 3, 1], "texture": "#0"},
				"south": {"uv": [2, 0, 3, 1], "texture": "#0"},
				"west": {"uv": [2, 0, 3, 1], "texture": "#0"},
				"up": {"uv": [2, 0, 3, 1], "texture": "#0"},
				"down": {"uv": [2, 0, 3, 1], "texture": "#0"}
			}
		},
		{
			"name": "MP5K Hanami mag_58",
			"from": [7.5, 3.93631, 5.49226],
			"to": [8.5, 4.01926, 5.61391],
			"rotation": {"angle": 0, "axis": "y", "origin": [7.48835, 4.008, 5.00252]},
			"faces": {
				"north": {"uv": [2, 0.75, 2.40625, 1], "texture": "#0"},
				"east": {"uv": [2, 0.75, 2.40625, 1], "texture": "#0"},
				"south": {"uv": [2, 0.75, 2.40625, 1], "texture": "#0"},
				"west": {"uv": [2, 0.75, 2.40625, 1], "texture": "#0"},
				"up": {"uv": [2, 0.75, 2.40625, 1], "texture": "#0"},
				"down": {"uv": [2, 0.75, 2.40625, 1], "texture": "#0"}
			}
		},
		{
			"name": "MP5K Hanami mag_59",
			"from": [7.5, 2.11155, 4.24533],
			"to": [8.5, 3.99161, 4.27574],
			"rotation": {"angle": 0, "axis": "y", "origin": [7.48835, 4.008, 5.00252]},
			"faces": {
				"north": {"uv": [2, 0, 3, 1], "texture": "#0"},
				"east": {"uv": [2, 0, 3, 1], "texture": "#0"},
				"south": {"uv": [2, 0, 3, 1], "texture": "#0"},
				"west": {"uv": [2, 0, 3, 1], "texture": "#0"},
				"up": {"uv": [2, 0, 3, 1], "texture": "#0"},
				"down": {"uv": [2, 0, 3, 1], "texture": "#0"}
			}
		},
		{
			"name": "MP5K Hanami mag_60",
			"from": [7.5, 2.13919, 4.21492],
			"to": [8.5, 3.93631, 4.24533],
			"rotation": {"angle": 0, "axis": "y", "origin": [7.48835, 4.008, 5.00252]},
			"faces": {
				"north": {"uv": [2, 0, 3, 1], "texture": "#0"},
				"east": {"uv": [2, 0, 3, 1], "texture": "#0"},
				"south": {"uv": [2, 0, 3, 1], "texture": "#0"},
				"west": {"uv": [2, 0, 3, 1], "texture": "#0"},
				"up": {"uv": [2, 0, 3, 1], "texture": "#0"},
				"down": {"uv": [2, 0, 3, 1], "texture": "#0"}
			}
		},
		{
			"name": "MP5K Hanami mag_61",
			"from": [7.5, 3.85337, 5.49226],
			"to": [8.5, 3.93631, 5.58349],
			"rotation": {"angle": 0, "axis": "y", "origin": [7.48835, 4.008, 5.00252]},
			"faces": {
				"north": {"uv": [2, 0.75, 2.40625, 1], "texture": "#0"},
				"east": {"uv": [2, 0.75, 2.40625, 1], "texture": "#0"},
				"south": {"uv": [2, 0.75, 2.40625, 1], "texture": "#0"},
				"west": {"uv": [2, 0.75, 2.40625, 1], "texture": "#0"},
				"up": {"uv": [2, 0.75, 2.40625, 1], "texture": "#0"},
				"down": {"uv": [2, 0.75, 2.40625, 1], "texture": "#0"}
			}
		},
		{
			"name": "MP5K Hanami mag_62",
			"from": [7.5, 2.16684, 4.18451],
			"to": [8.5, 3.88102, 4.21492],
			"rotation": {"angle": 0, "axis": "y", "origin": [7.48835, 4.008, 5.00252]},
			"faces": {
				"north": {"uv": [2, 0, 3, 1], "texture": "#0"},
				"east": {"uv": [2, 0, 3, 1], "texture": "#0"},
				"south": {"uv": [2, 0, 3, 1], "texture": "#0"},
				"west": {"uv": [2, 0, 3, 1], "texture": "#0"},
				"up": {"uv": [2, 0, 3, 1], "texture": "#0"},
				"down": {"uv": [2, 0, 3, 1], "texture": "#0"}
			}
		},
		{
			"name": "MP5K Hanami mag_63",
			"from": [7.5, 3.79807, 5.49226],
			"to": [8.5, 3.85337, 5.55308],
			"rotation": {"angle": 0, "axis": "y", "origin": [7.48835, 4.008, 5.00252]},
			"faces": {
				"north": {"uv": [2, 0.71875, 2.375, 1], "texture": "#0"},
				"east": {"uv": [2, 0.71875, 2.375, 1], "texture": "#0"},
				"south": {"uv": [2, 0.71875, 2.375, 1], "texture": "#0"},
				"west": {"uv": [2, 0.71875, 2.375, 1], "texture": "#0"},
				"up": {"uv": [2, 0.71875, 2.375, 1], "texture": "#0"},
				"down": {"uv": [2, 0.71875, 2.375, 1], "texture": "#0"}
			}
		},
		{
			"name": "MP5K Hanami mag_64",
			"from": [7.5, 2.16684, 4.15409],
			"to": [8.5, 3.82572, 4.18451],
			"rotation": {"angle": 0, "axis": "y", "origin": [7.48835, 4.008, 5.00252]},
			"faces": {
				"north": {"uv": [2, 0, 3, 1], "texture": "#0"},
				"east": {"uv": [2, 0, 3, 1], "texture": "#0"},
				"south": {"uv": [2, 0, 3, 1], "texture": "#0"},
				"west": {"uv": [2, 0, 3, 1], "texture": "#0"},
				"up": {"uv": [2, 0, 3, 1], "texture": "#0"},
				"down": {"uv": [2, 0, 3, 1], "texture": "#0"}
			}
		},
		{
			"name": "MP5K Hanami mag_65",
			"from": [7.5, 3.71513, 5.49226],
			"to": [8.5, 3.79807, 5.52267],
			"rotation": {"angle": 0, "axis": "y", "origin": [7.48835, 4.008, 5.00252]},
			"faces": {
				"north": {"uv": [2, 0.75, 2.40625, 1], "texture": "#0"},
				"east": {"uv": [2, 0.75, 2.40625, 1], "texture": "#0"},
				"south": {"uv": [2, 0.75, 2.40625, 1], "texture": "#0"},
				"west": {"uv": [2, 0.75, 2.40625, 1], "texture": "#0"},
				"up": {"uv": [2, 0.75, 2.40625, 1], "texture": "#0"},
				"down": {"uv": [2, 0.75, 2.40625, 1], "texture": "#0"}
			}
		},
		{
			"name": "MP5K Hanami mag_66",
			"from": [7.5, 2.19449, 4.12368],
			"to": [8.5, 3.77043, 4.15409],
			"rotation": {"angle": 0, "axis": "y", "origin": [7.48835, 4.008, 5.00252]},
			"faces": {
				"north": {"uv": [2, 0, 3, 1], "texture": "#0"},
				"east": {"uv": [2, 0, 3, 1], "texture": "#0"},
				"south": {"uv": [2, 0, 3, 1], "texture": "#0"},
				"west": {"uv": [2, 0, 3, 1], "texture": "#0"},
				"up": {"uv": [2, 0, 3, 1], "texture": "#0"},
				"down": {"uv": [2, 0, 3, 1], "texture": "#0"}
			}
		},
		{
			"name": "MP5K Hanami mag_67",
			"from": [7.5, 2.19449, 4.09327],
			"to": [8.5, 3.68748, 4.12368],
			"rotation": {"angle": 0, "axis": "y", "origin": [7.48835, 4.008, 5.00252]},
			"faces": {
				"north": {"uv": [2, 0, 3, 1], "texture": "#0"},
				"east": {"uv": [2, 0, 3, 1], "texture": "#0"},
				"south": {"uv": [2, 0, 3, 1], "texture": "#0"},
				"west": {"uv": [2, 0, 3, 1], "texture": "#0"},
				"up": {"uv": [2, 0, 3, 1], "texture": "#0"},
				"down": {"uv": [2, 0, 3, 1], "texture": "#0"}
			}
		},
		{
			"name": "MP5K Hanami mag_68",
			"from": [7.5, 2.22214, 4.06285],
			"to": [8.5, 3.65983, 4.09327],
			"rotation": {"angle": 0, "axis": "y", "origin": [7.48835, 4.008, 5.00252]},
			"faces": {
				"north": {"uv": [2, 0, 3, 1], "texture": "#0"},
				"east": {"uv": [2, 0, 3, 1], "texture": "#0"},
				"south": {"uv": [2, 0, 3, 1], "texture": "#0"},
				"west": {"uv": [2, 0, 3, 1], "texture": "#0"},
				"up": {"uv": [2, 0, 3, 1], "texture": "#0"},
				"down": {"uv": [2, 0, 3, 1], "texture": "#0"}
			}
		},
		{
			"name": "MP5K Hanami mag_69",
			"from": [7.5, 3.35571, 5.1273],
			"to": [8.5, 3.63219, 5.3706],
			"rotation": {"angle": 0, "axis": "y", "origin": [7.48835, 4.008, 5.00252]},
			"faces": {
				"north": {"uv": [2, 0.46875, 2.34375, 0.96875], "texture": "#0"},
				"east": {"uv": [2, 0.46875, 2.34375, 0.96875], "texture": "#0"},
				"south": {"uv": [2, 0.46875, 2.34375, 0.96875], "texture": "#0"},
				"west": {"uv": [2, 0.46875, 2.34375, 0.96875], "texture": "#0"},
				"up": {"uv": [2, 0.46875, 2.34375, 0.96875], "texture": "#0"},
				"down": {"uv": [2, 0.46875, 2.34375, 0.96875], "texture": "#0"}
			}
		},
		{
			"name": "MP5K Hanami mag_70",
			"from": [7.5, 3.57689, 5.3706],
			"to": [8.5, 3.63219, 5.46184],
			"rotation": {"angle": 0, "axis": "y", "origin": [7.48835, 4.008, 5.00252]},
			"faces": {
				"north": {"uv": [2, 0.71875, 2.375, 1], "texture": "#0"},
				"east": {"uv": [2, 0.71875, 2.375, 1], "texture": "#0"},
				"south": {"uv": [2, 0.71875, 2.375, 1], "texture": "#0"},
				"west": {"uv": [2, 0.71875, 2.375, 1], "texture": "#0"},
				"up": {"uv": [2, 0.71875, 2.375, 1], "texture": "#0"},
				"down": {"uv": [2, 0.71875, 2.375, 1], "texture": "#0"}
			}
		},
		{
			"name": "MP5K Hanami mag_71",
			"from": [7.5, 2.22214, 4.03244],
			"to": [8.5, 3.57689, 4.06285],
			"rotation": {"angle": 0, "axis": "y", "origin": [7.48835, 4.008, 5.00252]},
			"faces": {
				"north": {"uv": [2, 0, 3, 1], "texture": "#0"},
				"east": {"uv": [2, 0, 3, 1], "texture": "#0"},
				"south": {"uv": [2, 0, 3, 1], "texture": "#0"},
				"west": {"uv": [2, 0, 3, 1], "texture": "#0"},
				"up": {"uv": [2, 0, 3, 1], "texture": "#0"},
				"down": {"uv": [2, 0, 3, 1], "texture": "#0"}
			}
		},
		{
			"name": "MP5K Hanami mag_72",
			"from": [7.5, 3.49395, 5.3706],
			"to": [8.5, 3.57689, 5.43143],
			"rotation": {"angle": 0, "axis": "y", "origin": [7.48835, 4.008, 5.00252]},
			"faces": {
				"north": {"uv": [2, 0.71875, 2.375, 1], "texture": "#0"},
				"east": {"uv": [2, 0.71875, 2.375, 1], "texture": "#0"},
				"south": {"uv": [2, 0.71875, 2.375, 1], "texture": "#0"},
				"west": {"uv": [2, 0.71875, 2.375, 1], "texture": "#0"},
				"up": {"uv": [2, 0.71875, 2.375, 1], "texture": "#0"},
				"down": {"uv": [2, 0.71875, 2.375, 1], "texture": "#0"}
			}
		},
		{
			"name": "MP5K Hanami mag_73",
			"from": [7.5, 2.24979, 4.00203],
			"to": [8.5, 3.49395, 4.03244],
			"rotation": {"angle": 0, "axis": "y", "origin": [7.48835, 4.008, 5.00252]},
			"faces": {
				"north": {"uv": [2, 0, 3, 1], "texture": "#0"},
				"east": {"uv": [2, 0, 3, 1], "texture": "#0"},
				"south": {"uv": [2, 0, 3, 1], "texture": "#0"},
				"west": {"uv": [2, 0, 3, 1], "texture": "#0"},
				"up": {"uv": [2, 0, 3, 1], "texture": "#0"},
				"down": {"uv": [2, 0, 3, 1], "texture": "#0"}
			}
		},
		{
			"name": "MP5K Hanami mag_74",
			"from": [7.5, 3.43865, 5.3706],
			"to": [8.5, 3.49395, 5.40102],
			"rotation": {"angle": 0, "axis": "y", "origin": [7.48835, 4.008, 5.00252]},
			"faces": {
				"north": {"uv": [2, 0.71875, 2.375, 1], "texture": "#0"},
				"east": {"uv": [2, 0.71875, 2.375, 1], "texture": "#0"},
				"south": {"uv": [2, 0.71875, 2.375, 1], "texture": "#0"},
				"west": {"uv": [2, 0.71875, 2.375, 1], "texture": "#0"},
				"up": {"uv": [2, 0.71875, 2.375, 1], "texture": "#0"},
				"down": {"uv": [2, 0.71875, 2.375, 1], "texture": "#0"}
			}
		},
		{
			"name": "MP5K Hanami mag_75",
			"from": [7.5, 2.27743, 3.97162],
			"to": [8.5, 3.4663, 4.00203],
			"rotation": {"angle": 0, "axis": "y", "origin": [7.48835, 4.008, 5.00252]},
			"faces": {
				"north": {"uv": [2, 0, 3, 1], "texture": "#0"},
				"east": {"uv": [2, 0, 3, 1], "texture": "#0"},
				"south": {"uv": [2, 0, 3, 1], "texture": "#0"},
				"west": {"uv": [2, 0, 3, 1], "texture": "#0"},
				"up": {"uv": [2, 0, 3, 1], "texture": "#0"},
				"down": {"uv": [2, 0, 3, 1], "texture": "#0"}
			}
		},
		{
			"name": "MP5K Hanami mag_76",
			"from": [7.5, 2.27743, 3.9412],
			"to": [8.5, 3.411, 3.97162],
			"rotation": {"angle": 0, "axis": "y", "origin": [7.48835, 4.008, 5.00252]},
			"faces": {
				"north": {"uv": [2, 0, 3, 1], "texture": "#0"},
				"east": {"uv": [2, 0, 3, 1], "texture": "#0"},
				"south": {"uv": [2, 0, 3, 1], "texture": "#0"},
				"west": {"uv": [2, 0, 3, 1], "texture": "#0"},
				"up": {"uv": [2, 0, 3, 1], "texture": "#0"},
				"down": {"uv": [2, 0, 3, 1], "texture": "#0"}
			}
		},
		{
			"name": "MP5K Hanami mag_77",
			"from": [7.5, 3.21747, 5.1273],
			"to": [8.5, 3.35571, 5.30978],
			"rotation": {"angle": 0, "axis": "y", "origin": [7.48835, 4.008, 5.00252]},
			"faces": {
				"north": {"uv": [2, 0.71875, 2.375, 1], "texture": "#0"},
				"east": {"uv": [2, 0.71875, 2.375, 1], "texture": "#0"},
				"south": {"uv": [2, 0.71875, 2.375, 1], "texture": "#0"},
				"west": {"uv": [2, 0.71875, 2.375, 1], "texture": "#0"},
				"up": {"uv": [2, 0.71875, 2.375, 1], "texture": "#0"},
				"down": {"uv": [2, 0.71875, 2.375, 1], "texture": "#0"}
			}
		},
		{
			"name": "MP5K Hanami mag_78",
			"from": [7.5, 3.30041, 5.30978],
			"to": [8.5, 3.35571, 5.34019],
			"rotation": {"angle": 0, "axis": "y", "origin": [7.48835, 4.008, 5.00252]},
			"faces": {
				"north": {"uv": [2, 0.71875, 2.375, 1], "texture": "#0"},
				"east": {"uv": [2, 0.71875, 2.375, 1], "texture": "#0"},
				"south": {"uv": [2, 0.71875, 2.375, 1], "texture": "#0"},
				"west": {"uv": [2, 0.71875, 2.375, 1], "texture": "#0"},
				"up": {"uv": [2, 0.71875, 2.375, 1], "texture": "#0"},
				"down": {"uv": [2, 0.71875, 2.375, 1], "texture": "#0"}
			}
		},
		{
			"name": "MP5K Hanami mag_79",
			"from": [7.5, 2.30508, 3.91079],
			"to": [8.5, 3.32806, 3.9412],
			"rotation": {"angle": 0, "axis": "y", "origin": [7.48835, 4.008, 5.00252]},
			"faces": {
				"north": {"uv": [2, 0, 3, 1], "texture": "#0"},
				"east": {"uv": [2, 0, 3, 1], "texture": "#0"},
				"south": {"uv": [2, 0, 3, 1], "texture": "#0"},
				"west": {"uv": [2, 0, 3, 1], "texture": "#0"},
				"up": {"uv": [2, 0, 3, 1], "texture": "#0"},
				"down": {"uv": [2, 0, 3, 1], "texture": "#0"}
			}
		},
		{
			"name": "MP5K Hanami mag_80",
			"from": [7.5, 2.30508, 3.88038],
			"to": [8.5, 3.27276, 3.91079],
			"rotation": {"angle": 0, "axis": "y", "origin": [7.48835, 4.008, 5.00252]},
			"faces": {
				"north": {"uv": [2, 0, 3, 1], "texture": "#0"},
				"east": {"uv": [2, 0, 3, 1], "texture": "#0"},
				"south": {"uv": [2, 0, 3, 1], "texture": "#0"},
				"west": {"uv": [2, 0, 3, 1], "texture": "#0"},
				"up": {"uv": [2, 0, 3, 1], "texture": "#0"},
				"down": {"uv": [2, 0, 3, 1], "texture": "#0"}
			}
		},
		{
			"name": "MP5K Hanami mag_81",
			"from": [7.5, 2.33273, 3.84996],
			"to": [8.5, 3.21747, 3.88038],
			"rotation": {"angle": 0, "axis": "y", "origin": [7.48835, 4.008, 5.00252]},
			"faces": {
				"north": {"uv": [2, 0, 3, 1], "texture": "#0"},
				"east": {"uv": [2, 0, 3, 1], "texture": "#0"},
				"south": {"uv": [2, 0, 3, 1], "texture": "#0"},
				"west": {"uv": [2, 0, 3, 1], "texture": "#0"},
				"up": {"uv": [2, 0, 3, 1], "texture": "#0"},
				"down": {"uv": [2, 0, 3, 1], "texture": "#0"}
			}
		},
		{
			"name": "MP5K Hanami mag_82",
			"from": [7.5, 3.07923, 5.1273],
			"to": [8.5, 3.21747, 5.24895],
			"rotation": {"angle": 0, "axis": "y", "origin": [7.48835, 4.008, 5.00252]},
			"faces": {
				"north": {"uv": [2, 0.71875, 2.375, 1], "texture": "#0"},
				"east": {"uv": [2, 0.71875, 2.375, 1], "texture": "#0"},
				"south": {"uv": [2, 0.71875, 2.375, 1], "texture": "#0"},
				"west": {"uv": [2, 0.71875, 2.375, 1], "texture": "#0"},
				"up": {"uv": [2, 0.71875, 2.375, 1], "texture": "#0"},
				"down": {"uv": [2, 0.71875, 2.375, 1], "texture": "#0"}
			}
		},
		{
			"name": "MP5K Hanami mag_83",
			"from": [7.5, 3.16217, 5.24895],
			"to": [8.5, 3.21747, 5.27937],
			"rotation": {"angle": 0, "axis": "y", "origin": [7.48835, 4.008, 5.00252]},
			"faces": {
				"north": {"uv": [2, 0.71875, 2.375, 1], "texture": "#0"},
				"east": {"uv": [2, 0.71875, 2.375, 1], "texture": "#0"},
				"south": {"uv": [2, 0.71875, 2.375, 1], "texture": "#0"},
				"west": {"uv": [2, 0.71875, 2.375, 1], "texture": "#0"},
				"up": {"uv": [2, 0.71875, 2.375, 1], "texture": "#0"},
				"down": {"uv": [2, 0.71875, 2.375, 1], "texture": "#0"}
			}
		},
		{
			"name": "MP5K Hanami mag_84",
			"from": [7.5, 2.33273, 3.81955],
			"to": [8.5, 3.16217, 3.84996],
			"rotation": {"angle": 0, "axis": "y", "origin": [7.48835, 4.008, 5.00252]},
			"faces": {
				"north": {"uv": [2, 0, 3, 1], "texture": "#0"},
				"east": {"uv": [2, 0, 3, 1], "texture": "#0"},
				"south": {"uv": [2, 0, 3, 1], "texture": "#0"},
				"west": {"uv": [2, 0, 3, 1], "texture": "#0"},
				"up": {"uv": [2, 0, 3, 1], "texture": "#0"},
				"down": {"uv": [2, 0, 3, 1], "texture": "#0"}
			}
		},
		{
			"name": "MP5K Hanami mag_85",
			"from": [7.5, 2.36038, 3.78914],
			"to": [8.5, 3.10687, 3.81955],
			"rotation": {"angle": 0, "axis": "y", "origin": [7.48835, 4.008, 5.00252]},
			"faces": {
				"north": {"uv": [2, 0, 3, 1], "texture": "#0"},
				"east": {"uv": [2, 0, 3, 1], "texture": "#0"},
				"south": {"uv": [2, 0, 3, 1], "texture": "#0"},
				"west": {"uv": [2, 0, 3, 1], "texture": "#0"},
				"up": {"uv": [2, 0, 3, 1], "texture": "#0"},
				"down": {"uv": [2, 0, 3, 1], "texture": "#0"}
			}
		},
		{
			"name": "MP5K Hanami mag_86",
			"from": [7.5, 3.02393, 5.1273],
			"to": [8.5, 3.07923, 5.21854],
			"rotation": {"angle": 0, "axis": "y", "origin": [7.48835, 4.008, 5.00252]},
			"faces": {
				"north": {"uv": [2, 0.71875, 2.375, 1], "texture": "#0"},
				"east": {"uv": [2, 0.71875, 2.375, 1], "texture": "#0"},
				"south": {"uv": [2, 0.71875, 2.375, 1], "texture": "#0"},
				"west": {"uv": [2, 0.71875, 2.375, 1], "texture": "#0"},
				"up": {"uv": [2, 0.71875, 2.375, 1], "texture": "#0"},
				"down": {"uv": [2, 0.71875, 2.375, 1], "texture": "#0"}
			}
		},
		{
			"name": "MP5K Hanami mag_87",
			"from": [7.5, 2.38803, 3.75873],
			"to": [8.5, 3.05158, 3.78914],
			"rotation": {"angle": 0, "axis": "y", "origin": [7.48835, 4.008, 5.00252]},
			"faces": {
				"north": {"uv": [2, 0, 3, 1], "texture": "#0"},
				"east": {"uv": [2, 0, 3, 1], "texture": "#0"},
				"south": {"uv": [2, 0, 3, 1], "texture": "#0"},
				"west": {"uv": [2, 0, 3, 1], "texture": "#0"},
				"up": {"uv": [2, 0, 3, 1], "texture": "#0"},
				"down": {"uv": [2, 0, 3, 1], "texture": "#0"}
			}
		},
		{
			"name": "MP5K Hanami mag_88",
			"from": [7.5, 2.94099, 5.1273],
			"to": [8.5, 3.02393, 5.18813],
			"rotation": {"angle": 0, "axis": "y", "origin": [7.48835, 4.008, 5.00252]},
			"faces": {
				"north": {"uv": [2, 0.71875, 2.375, 1], "texture": "#0"},
				"east": {"uv": [2, 0.71875, 2.375, 1], "texture": "#0"},
				"south": {"uv": [2, 0.71875, 2.375, 1], "texture": "#0"},
				"west": {"uv": [2, 0.71875, 2.375, 1], "texture": "#0"},
				"up": {"uv": [2, 0.71875, 2.375, 1], "texture": "#0"},
				"down": {"uv": [2, 0.71875, 2.375, 1], "texture": "#0"}
			}
		},
		{
			"name": "MP5K Hanami mag_89",
			"from": [7.5, 2.38803, 3.72831],
			"to": [8.5, 2.99628, 3.75873],
			"rotation": {"angle": 0, "axis": "y", "origin": [7.48835, 4.008, 5.00252]},
			"faces": {
				"north": {"uv": [2, 0, 3, 1], "texture": "#0"},
				"east": {"uv": [2, 0, 3, 1], "texture": "#0"},
				"south": {"uv": [2, 0, 3, 1], "texture": "#0"},
				"west": {"uv": [2, 0, 3, 1], "texture": "#0"},
				"up": {"uv": [2, 0, 3, 1], "texture": "#0"},
				"down": {"uv": [2, 0, 3, 1], "texture": "#0"}
			}
		},
		{
			"name": "MP5K Hanami mag_90",
			"from": [7.5, 2.41567, 3.6979],
			"to": [8.5, 2.94099, 3.72831],
			"rotation": {"angle": 0, "axis": "y", "origin": [7.48835, 4.008, 5.00252]},
			"faces": {
				"north": {"uv": [2, 0, 3, 1], "texture": "#0"},
				"east": {"uv": [2, 0, 3, 1], "texture": "#0"},
				"south": {"uv": [2, 0, 3, 1], "texture": "#0"},
				"west": {"uv": [2, 0, 3, 1], "texture": "#0"},
				"up": {"uv": [2, 0, 3, 1], "texture": "#0"},
				"down": {"uv": [2, 0, 3, 1], "texture": "#0"}
			}
		},
		{
			"name": "MP5K Hanami mag_91",
			"from": [7.5, 2.85804, 5.1273],
			"to": [8.5, 2.94099, 5.15771],
			"rotation": {"angle": 0, "axis": "y", "origin": [7.48835, 4.008, 5.00252]},
			"faces": {
				"north": {"uv": [2, 0.71875, 2.375, 1], "texture": "#0"},
				"east": {"uv": [2, 0.71875, 2.375, 1], "texture": "#0"},
				"south": {"uv": [2, 0.71875, 2.375, 1], "texture": "#0"},
				"west": {"uv": [2, 0.71875, 2.375, 1], "texture": "#0"},
				"up": {"uv": [2, 0.71875, 2.375, 1], "texture": "#0"},
				"down": {"uv": [2, 0.71875, 2.375, 1], "texture": "#0"}
			}
		},
		{
			"name": "MP5K Hanami mag_92",
			"from": [7.5, 2.41567, 3.66749],
			"to": [8.5, 2.88569, 3.6979],
			"rotation": {"angle": 0, "axis": "y", "origin": [7.48835, 4.008, 5.00252]},
			"faces": {
				"north": {"uv": [2, 0, 3, 1], "texture": "#0"},
				"east": {"uv": [2, 0, 3, 1], "texture": "#0"},
				"south": {"uv": [2, 0, 3, 1], "texture": "#0"},
				"west": {"uv": [2, 0, 3, 1], "texture": "#0"},
				"up": {"uv": [2, 0, 3, 1], "texture": "#0"},
				"down": {"uv": [2, 0, 3, 1], "texture": "#0"}
			}
		},
		{
			"name": "MP5K Hanami mag_93",
			"from": [7.5, 2.44332, 3.63707],
			"to": [8.5, 2.83039, 3.66749],
			"rotation": {"angle": 0, "axis": "y", "origin": [7.48835, 4.008, 5.00252]},
			"faces": {
				"north": {"uv": [2, 0, 3, 1], "texture": "#0"},
				"east": {"uv": [2, 0, 3, 1], "texture": "#0"},
				"south": {"uv": [2, 0, 3, 1], "texture": "#0"},
				"west": {"uv": [2, 0, 3, 1], "texture": "#0"},
				"up": {"uv": [2, 0, 3, 1], "texture": "#0"},
				"down": {"uv": [2, 0, 3, 1], "texture": "#0"}
			}
		},
		{
			"name": "MP5K Hanami mag_94",
			"from": [7.5, 2.47097, 3.60666],
			"to": [8.5, 2.7751, 3.63707],
			"rotation": {"angle": 0, "axis": "y", "origin": [7.48835, 4.008, 5.00252]},
			"faces": {
				"north": {"uv": [2, 0, 3, 1], "texture": "#0"},
				"east": {"uv": [2, 0, 3, 1], "texture": "#0"},
				"south": {"uv": [2, 0, 3, 1], "texture": "#0"},
				"west": {"uv": [2, 0, 3, 1], "texture": "#0"},
				"up": {"uv": [2, 0, 3, 1], "texture": "#0"},
				"down": {"uv": [2, 0, 3, 1], "texture": "#0"}
			}
		},
		{
			"name": "MP5K Hanami mag_95",
			"from": [7.5, 2.47097, 3.57625],
			"to": [8.5, 2.7198, 3.60666],
			"rotation": {"angle": 0, "axis": "y", "origin": [7.48835, 4.008, 5.00252]},
			"faces": {
				"north": {"uv": [2, 0, 3, 1], "texture": "#0"},
				"east": {"uv": [2, 0, 3, 1], "texture": "#0"},
				"south": {"uv": [2, 0, 3, 1], "texture": "#0"},
				"west": {"uv": [2, 0, 3, 1], "texture": "#0"},
				"up": {"uv": [2, 0, 3, 1], "texture": "#0"},
				"down": {"uv": [2, 0, 3, 1], "texture": "#0"}
			}
		},
		{
			"name": "MP5K Hanami mag_96",
			"from": [7.5, 2.55391, 3.54584],
			"to": [8.5, 2.66451, 3.57625],
			"rotation": {"angle": 0, "axis": "y", "origin": [7.48835, 4.008, 5.00252]},
			"faces": {
				"north": {"uv": [2, 0, 3, 1], "texture": "#0"},
				"east": {"uv": [2, 0, 3, 1], "texture": "#0"},
				"south": {"uv": [2, 0, 3, 1], "texture": "#0"},
				"west": {"uv": [2, 0, 3, 1], "texture": "#0"},
				"up": {"uv": [2, 0, 3, 1], "texture": "#0"},
				"down": {"uv": [2, 0, 3, 1], "texture": "#0"}
			}
		}
	],
	"groups": [
		{
			"name": "mag",
			"origin": [8, 8, 8],
			"children": [0, 1, 2, 3, 4, 5, 6, 7, 8, 9, 10, 11, 12, 13, 14, 15, 16, 17, 18, 19, 20, 21, 22, 23, 24, 25, 26, 27, 28, 29, 30, 31, 32, 33, 34, 35, 36, 37, 38, 39, 40, 41, 42, 43, 44, 45, 46, 47, 48, 49, 50, 51, 52, 53, 54, 55, 56, 57, 58, 59, 60, 61, 62, 63, 64, 65, 66, 67, 68, 69, 70, 71, 72, 73, 74, 75, 76, 77, 78, 79, 80, 81, 82, 83, 84, 85, 86, 87, 88, 89, 90, 91, 92, 93, 94, 95, 96, 97]
		}
	]
}