{
	"credit": "Made with Blockbench",
	"elements": [
		{
			"from": [7.13383, 9.4773, 0.75],
			"to": [7.63383, 9.6523, 0.925],
			"rotation": {"angle": -22.5, "axis": "z", "origin": [8.625, 9.575, 1.15]},
			"color": 4,
			"faces": {
				"north": {"uv": [0, 0, 1, 1], "texture": "#missing"},
				"east": {"uv": [0, 0, 1, 1], "texture": "#missing"},
				"south": {"uv": [0, 0, 1, 1], "texture": "#missing"},
				"west": {"uv": [0, 0, 1, 1], "texture": "#missing"},
				"up": {"uv": [0, 0, 1, 1], "texture": "#missing"},
				"down": {"uv": [0, 0, 1, 1], "texture": "#missing"}
			}
		}
	],
	"groups": [
		{
			"name": "handle",
			"origin": [8, 9.825, 1.15],
			"children": [0]
		}
	]
}