{
	"credit": "Made with Blockbench",
	"textures": {
		"0": "ava:item/gun_textures/silver2",
		"particle": "ava:item/gun_textures/silver2"
	},
	"elements": [
		{
			"name": "ForearmLeft2",
			"from": [6.75, 9.5, 0.5],
			"to": [7.75, 9.75, 0.75],
			"rotation": {"angle": 0, "axis": "y", "origin": [8, 10, 9]},
			"faces": {
				"north": {"uv": [0, 0, 16, 16], "texture": "#0"},
				"east": {"uv": [0, 0, 16, 16], "texture": "#0"},
				"south": {"uv": [0, 0, 16, 16], "texture": "#0"},
				"west": {"uv": [0, 0, 16, 16], "texture": "#0"},
				"up": {"uv": [0, 0, 16, 16], "texture": "#0"},
				"down": {"uv": [0, 0, 16, 16], "texture": "#0"}
			}
		}
	]
}