{
  "variants": {
    "facing=north,active=false": {
      "model": "ava:block/ammo_kit_supplier", "y": 180
    },
    "facing=south,active=false": {
      "model": "ava:block/ammo_kit_supplier"
    },
    "facing=east,active=false": {
      "model": "ava:block/ammo_kit_supplier", "y": 270
    },
    "facing=west,active=false": {
      "model": "ava:block/ammo_kit_supplier", "y": 90
    },
    "facing=north,active=true": {
      "model": "ava:block/ammo_kit_supplier", "y": 180
    },
    "facing=south,active=true": {
      "model": "ava:block/ammo_kit_supplier"
    },
    "facing=east,active=true": {
      "model": "ava:block/ammo_kit_supplier", "y": 270
    },
    "facing=west,active=true": {
      "model": "ava:block/ammo_kit_supplier", "y": 90
    }
  }
}