{
	"credit": "Made with Blockbench",
	"textures": {
		"0": "ava:item/gun_textures/palette_air_warfare",
		"particle": "ava:item/gun_textures/palette_air_warfare"
	},
	"elements": [
		{
			"name": "scobo3",
			"from": [7.74, 9.07, 11.8],
			"to": [8.24, 9.27, 14.3],
			"rotation": {"angle": 0, "axis": "y", "origin": [21.825, 21.85, 8.8]},
			"faces": {
				"north": {"uv": [2, 0, 2.5, 0.75], "rotation": 270, "texture": "#0"},
				"east": {"uv": [2, 0, 2.5, 0.75], "rotation": 270, "texture": "#0"},
				"south": {"uv": [2, 0, 2.5, 0.75], "rotation": 270, "texture": "#0"},
				"west": {"uv": [2, 0, 2.5, 0.75], "rotation": 270, "texture": "#0"},
				"up": {"uv": [2, 0, 2.5, 0.75], "rotation": 270, "texture": "#0"},
				"down": {"uv": [2, 0, 2.5, 0.75], "rotation": 270, "texture": "#0"}
			}
		},
		{
			"name": "scobo4",
			"from": [7.59, 9.07, 14.3],
			"to": [8.39, 9.295, 14.55],
			"rotation": {"angle": 0, "axis": "y", "origin": [21.675, 21.85, 11.3]},
			"faces": {
				"north": {"uv": [2, 0, 2.5, 0.75], "rotation": 270, "texture": "#0"},
				"east": {"uv": [2, 0, 2.5, 0.75], "rotation": 270, "texture": "#0"},
				"south": {"uv": [2, 0, 2.5, 0.75], "rotation": 270, "texture": "#0"},
				"west": {"uv": [2, 0, 2.5, 0.75], "rotation": 270, "texture": "#0"},
				"up": {"uv": [2, 0, 2.5, 0.75], "rotation": 270, "texture": "#0"},
				"down": {"uv": [2, 0, 2.5, 0.75], "rotation": 270, "texture": "#0"}
			}
		}
	],
	"groups": [
		{
			"name": "handle",
			"origin": [21.825, 21.85, 8.8],
			"children": [0, 1]
		}
	]
}