{
	  "type": "minecraft:block",
	  "pools": [
	    {
		  "name": "gun_crafting_table",
	      "rolls": 1,
	      "entries": [
	        {
	          "type": "minecraft:item",
	          "name": "ava:gun_crafting_table"
	        }
	      ],
	      "conditions": [
	        {
	          "condition": "minecraft:survives_explosion"
	        }
	      ]
	    }
	  ]
	}
