{
	"credit": "Made with Blockbench",
	"textures": {
		"0": "ava:item/gun_textures/palette_black",
		"particle": "ava:item/gun_textures/palette_black"
	},
	"elements": [
		{
			"name": "octagon",
			"from": [6.85, 7.875, 5.15],
			"to": [7.35, 8.025, 5.3],
			"rotation": {"angle": 0, "axis": "y", "origin": [7.275, 8.775, 6]},
			"faces": {
				"north": {"uv": [4, 0, 6, 2], "texture": "#0"},
				"east": {"uv": [4, 0, 6, 2], "texture": "#0"},
				"south": {"uv": [4, 0, 6, 2], "texture": "#0"},
				"west": {"uv": [4, 0, 6, 2], "texture": "#0"},
				"up": {"uv": [4, 0, 6, 2], "texture": "#0"},
				"down": {"uv": [4, 0, 6, 2], "texture": "#0"}
			}
		},
		{
			"name": "octagon",
			"from": [6.85, 7.85, 5.15],
			"to": [7.1, 8.05, 5.35],
			"rotation": {"angle": 0, "axis": "y", "origin": [7.275, 8.75, 6]},
			"faces": {
				"north": {"uv": [4, 0, 6, 2], "texture": "#0"},
				"east": {"uv": [4, 0, 6, 2], "texture": "#0"},
				"south": {"uv": [4, 0, 6, 2], "texture": "#0"},
				"west": {"uv": [4, 0, 6, 2], "texture": "#0"},
				"up": {"uv": [4, 0, 6, 2], "texture": "#0"},
				"down": {"uv": [4, 0, 6, 2], "texture": "#0"}
			}
		}
	],
	"groups": [
		{
			"name": "slide",
			"origin": [7.775, 8.525, 6],
			"children": [0, 1]
		}
	]
}