{
	"credit": "Made with Blockbench",
	"textures": {
		"0": "ava:item/gun_textures/palette_knut",
		"particle": "ava:item/gun_textures/palette_knut"
	},
	"elements": [
		{
			"name": "hexadecagon",
			"from": [7.4, 5.375, 8.1],
			"to": [8.6, 7.375, 10.6],
			"rotation": {"angle": 0, "axis": "y", "origin": [8.15, 5.75, 9.875]},
			"faces": {
				"north": {"uv": [8.3125, 2.21875, 9.28125, 3.84375], "texture": "#0"},
				"east": {"uv": [12.84375, 2, 14.59375, 2.46875], "texture": "#0"},
				"south": {"uv": [9.625, 2, 11.25, 2.46875], "texture": "#0"},
				"west": {"uv": [9.625, 2, 11.25, 2.46875], "texture": "#0"},
				"up": {"uv": [9.625, 2, 11.25, 2.46875], "texture": "#0"},
				"down": {"uv": [9.625, 2, 11.25, 2.46875], "texture": "#0"}
			}
		},
		{
			"name": "hexadecagon",
			"from": [7.4, 3.375, 8.1],
			"to": [8.6, 5.375, 10.6],
			"rotation": {"angle": 0, "axis": "y", "origin": [8.15, 3.75, 9.875]},
			"faces": {
				"north": {"uv": [8.3125, 2.21875, 9.28125, 3.84375], "texture": "#0"},
				"east": {"uv": [12.5, 2.0625, 14.6875, 3.90625], "texture": "#0"},
				"south": {"uv": [8.21875, 2.4375, 9.28125, 3.84375], "texture": "#0"},
				"west": {"uv": [9.5625, 2.3125, 11.4375, 3.9375], "texture": "#0"},
				"up": {"uv": [9.5625, 2.3125, 11.4375, 3.9375], "texture": "#0"},
				"down": {"uv": [9.5625, 2.3125, 11.4375, 3.9375], "texture": "#0"}
			}
		},
		{
			"name": "hexadecagon",
			"from": [7.4, 2.65, 8.1],
			"to": [8.6, 3.65, 10.35],
			"rotation": {"angle": 22.5, "axis": "x", "origin": [8.15, 3.025, 9.875]},
			"faces": {
				"north": {"uv": [8.3125, 2.34375, 9.71875, 3.8125], "texture": "#0"},
				"east": {"uv": [8.3125, 2.34375, 9.71875, 3.8125], "texture": "#0"},
				"south": {"uv": [8.3125, 2.34375, 9.71875, 3.8125], "texture": "#0"},
				"west": {"uv": [8.3125, 2.34375, 9.71875, 3.8125], "texture": "#0"},
				"up": {"uv": [8.3125, 2.34375, 9.71875, 3.8125], "texture": "#0"},
				"down": {"uv": [8.3125, 2.34375, 9.71875, 3.8125], "texture": "#0"}
			}
		},
		{
			"name": "hexadecagon",
			"from": [7.4, 2.5, 10.15],
			"to": [8.6, 3.4, 10.6],
			"rotation": {"angle": 0, "axis": "y", "origin": [8.15, 2.875, 11.925]},
			"faces": {
				"north": {"uv": [8.3125, 2.34375, 9.71875, 3.8125], "texture": "#0"},
				"east": {"uv": [8.3125, 2.34375, 9.71875, 3.8125], "texture": "#0"},
				"south": {"uv": [8.3125, 2.34375, 9.71875, 3.8125], "texture": "#0"},
				"west": {"uv": [8.3125, 2.34375, 9.71875, 3.8125], "texture": "#0"},
				"up": {"uv": [8.3125, 2.34375, 9.71875, 3.8125], "texture": "#0"},
				"down": {"uv": [8.3125, 2.34375, 9.71875, 3.8125], "texture": "#0"}
			}
		}
	],
	"groups": [
		{
			"name": "mag",
			"origin": [8, 4.65, 9.775],
			"children": [0, 1, 2, 3]
		}
	]
}