{
	"credit": "Made with Blockbench",
	"textures": {
		"0": "ava:item/gun_textures/palette_black",
		"particle": "ava:item/gun_textures/palette_black"
	},
	"elements": [
		{
			"name": "FN-FNC Dreamcatcher mag_0",
			"from": [7.4, 1.86366, 8.95577],
			"to": [8.6, 7.23617, 9.09531],
			"rotation": {"angle": 0, "axis": "y", "origin": [7.42728, 3.47649, 9.68078]},
			"faces": {
				"north": {"uv": [0, 0, 2, 2], "texture": "#0"},
				"east": {"uv": [0, 0, 2, 2], "texture": "#0"},
				"south": {"uv": [0, 0, 2, 2], "texture": "#0"},
				"west": {"uv": [0, 0, 2, 2], "texture": "#0"},
				"up": {"uv": [0, 0, 2, 2], "texture": "#0"},
				"down": {"uv": [0, 0, 2, 2], "texture": "#0"}
			}
		},
		{
			"name": "FN-FNC Dreamcatcher mag_1",
			"from": [7.4, 1.86366, 8.90925],
			"to": [8.6, 7.16639, 8.95577],
			"rotation": {"angle": 0, "axis": "y", "origin": [7.42728, 3.47649, 9.68078]},
			"faces": {
				"north": {"uv": [0, 0, 2, 2], "texture": "#0"},
				"east": {"uv": [0, 0, 2, 2], "texture": "#0"},
				"south": {"uv": [0, 0, 2, 2], "texture": "#0"},
				"west": {"uv": [0, 0, 2, 2], "texture": "#0"},
				"up": {"uv": [0, 0, 2, 2], "texture": "#0"},
				"down": {"uv": [0, 0, 2, 2], "texture": "#0"}
			}
		},
		{
			"name": "FN-FNC Dreamcatcher mag_2",
			"from": [7.4, 1.79389, 9.09531],
			"to": [8.6, 7.16639, 9.23486],
			"rotation": {"angle": 0, "axis": "y", "origin": [7.42728, 3.47649, 9.68078]},
			"faces": {
				"north": {"uv": [0, 0, 2, 2], "texture": "#0"},
				"east": {"uv": [0, 0, 2, 2], "texture": "#0"},
				"south": {"uv": [0, 0, 2, 2], "texture": "#0"},
				"west": {"uv": [0, 0, 2, 2], "texture": "#0"},
				"up": {"uv": [0, 0, 2, 2], "texture": "#0"},
				"down": {"uv": [0, 0, 2, 2], "texture": "#0"}
			}
		},
		{
			"name": "FN-FNC Dreamcatcher mag_3",
			"from": [7.4, 1.72412, 9.23486],
			"to": [8.6, 7.09662, 9.42092],
			"rotation": {"angle": 0, "axis": "y", "origin": [7.42728, 3.47649, 9.68078]},
			"faces": {
				"north": {"uv": [0, 0, 2, 2], "texture": "#0"},
				"east": {"uv": [0, 0, 2, 2], "texture": "#0"},
				"south": {"uv": [0, 0, 2, 2], "texture": "#0"},
				"west": {"uv": [0, 0, 2, 2], "texture": "#0"},
				"up": {"uv": [0, 0, 2, 2], "texture": "#0"},
				"down": {"uv": [0, 0, 2, 2], "texture": "#0"}
			}
		},
		{
			"name": "FN-FNC Dreamcatcher mag_4",
			"from": [7.4, 1.86366, 8.86274],
			"to": [8.6, 7.02685, 8.90925],
			"rotation": {"angle": 0, "axis": "y", "origin": [7.42728, 3.47649, 9.68078]},
			"faces": {
				"north": {"uv": [0, 0, 2, 2], "texture": "#0"},
				"east": {"uv": [0, 0, 2, 2], "texture": "#0"},
				"south": {"uv": [0, 0, 2, 2], "texture": "#0"},
				"west": {"uv": [0, 0, 2, 2], "texture": "#0"},
				"up": {"uv": [0, 0, 2, 2], "texture": "#0"},
				"down": {"uv": [0, 0, 2, 2], "texture": "#0"}
			}
		},
		{
			"name": "FN-FNC Dreamcatcher mag_5",
			"from": [7.4, 1.65434, 9.42092],
			"to": [8.6, 7.02685, 9.60698],
			"rotation": {"angle": 0, "axis": "y", "origin": [7.42728, 3.47649, 9.68078]},
			"faces": {
				"north": {"uv": [0, 0, 2, 2], "texture": "#0"},
				"east": {"uv": [0, 0, 2, 2], "texture": "#0"},
				"south": {"uv": [0, 0, 2, 2], "texture": "#0"},
				"west": {"uv": [0, 0, 2, 2], "texture": "#0"},
				"up": {"uv": [0, 0, 2, 2], "texture": "#0"},
				"down": {"uv": [0, 0, 2, 2], "texture": "#0"}
			}
		},
		{
			"name": "FN-FNC Dreamcatcher mag_6",
			"from": [7.4, 1.5148, 9.60698],
			"to": [8.6, 6.95708, 9.74652],
			"rotation": {"angle": 0, "axis": "y", "origin": [7.42728, 3.47649, 9.68078]},
			"faces": {
				"north": {"uv": [0, 0, 2, 2], "texture": "#0"},
				"east": {"uv": [0, 0, 2, 2], "texture": "#0"},
				"south": {"uv": [0, 0, 2, 2], "texture": "#0"},
				"west": {"uv": [0, 0, 2, 2], "texture": "#0"},
				"up": {"uv": [0, 0, 2, 2], "texture": "#0"},
				"down": {"uv": [0, 0, 2, 2], "texture": "#0"}
			}
		},
		{
			"name": "FN-FNC Dreamcatcher mag_7",
			"from": [7.4, 1.93343, 8.81622],
			"to": [8.6, 6.8873, 8.86274],
			"rotation": {"angle": 0, "axis": "y", "origin": [7.42728, 3.47649, 9.68078]},
			"faces": {
				"north": {"uv": [0, 0, 2, 2], "texture": "#0"},
				"east": {"uv": [0, 0, 2, 2], "texture": "#0"},
				"south": {"uv": [0, 0, 2, 2], "texture": "#0"},
				"west": {"uv": [0, 0, 2, 2], "texture": "#0"},
				"up": {"uv": [0, 0, 2, 2], "texture": "#0"},
				"down": {"uv": [0, 0, 2, 2], "texture": "#0"}
			}
		},
		{
			"name": "FN-FNC Dreamcatcher mag_8",
			"from": [7.4, 1.44502, 9.74652],
			"to": [8.6, 6.8873, 9.93259],
			"rotation": {"angle": 0, "axis": "y", "origin": [7.42728, 3.47649, 9.68078]},
			"faces": {
				"north": {"uv": [0, 0, 2, 2], "texture": "#0"},
				"east": {"uv": [0, 0, 2, 2], "texture": "#0"},
				"south": {"uv": [0, 0, 2, 2], "texture": "#0"},
				"west": {"uv": [0, 0, 2, 2], "texture": "#0"},
				"up": {"uv": [0, 0, 2, 2], "texture": "#0"},
				"down": {"uv": [0, 0, 2, 2], "texture": "#0"}
			}
		},
		{
			"name": "FN-FNC Dreamcatcher mag_9",
			"from": [7.4, 1.93343, 8.76971],
			"to": [8.6, 6.81753, 8.81622],
			"rotation": {"angle": 0, "axis": "y", "origin": [7.42728, 3.47649, 9.68078]},
			"faces": {
				"north": {"uv": [0, 0, 2, 2], "texture": "#0"},
				"east": {"uv": [0, 0, 2, 2], "texture": "#0"},
				"south": {"uv": [0, 0, 2, 2], "texture": "#0"},
				"west": {"uv": [0, 0, 2, 2], "texture": "#0"},
				"up": {"uv": [0, 0, 2, 2], "texture": "#0"},
				"down": {"uv": [0, 0, 2, 2], "texture": "#0"}
			}
		},
		{
			"name": "FN-FNC Dreamcatcher mag_10",
			"from": [7.4, 1.37525, 9.93259],
			"to": [8.6, 6.81753, 10.07213],
			"rotation": {"angle": 0, "axis": "y", "origin": [7.42728, 3.47649, 9.68078]},
			"faces": {
				"north": {"uv": [0, 0, 2, 2], "texture": "#0"},
				"east": {"uv": [0, 0, 2, 2], "texture": "#0"},
				"south": {"uv": [0, 0, 2, 2], "texture": "#0"},
				"west": {"uv": [0, 0, 2, 2], "texture": "#0"},
				"up": {"uv": [0, 0, 2, 2], "texture": "#0"},
				"down": {"uv": [0, 0, 2, 2], "texture": "#0"}
			}
		},
		{
			"name": "FN-FNC Dreamcatcher mag_11",
			"from": [7.4, 2.00321, 8.72319],
			"to": [8.6, 6.74776, 8.76971],
			"rotation": {"angle": 0, "axis": "y", "origin": [7.42728, 3.47649, 9.68078]},
			"faces": {
				"north": {"uv": [0, 0, 2, 2], "texture": "#0"},
				"east": {"uv": [0, 0, 2, 2], "texture": "#0"},
				"south": {"uv": [0, 0, 2, 2], "texture": "#0"},
				"west": {"uv": [0, 0, 2, 2], "texture": "#0"},
				"up": {"uv": [0, 0, 2, 2], "texture": "#0"},
				"down": {"uv": [0, 0, 2, 2], "texture": "#0"}
			}
		},
		{
			"name": "FN-FNC Dreamcatcher mag_12",
			"from": [7.4, 1.30548, 10.07213],
			"to": [8.6, 6.74776, 10.35122],
			"rotation": {"angle": 0, "axis": "y", "origin": [7.42728, 3.47649, 9.68078]},
			"faces": {
				"north": {"uv": [0, 0, 2, 2], "texture": "#0"},
				"east": {"uv": [0, 0, 2, 2], "texture": "#0"},
				"south": {"uv": [0, 0, 2, 2], "texture": "#0"},
				"west": {"uv": [0, 0, 2, 2], "texture": "#0"},
				"up": {"uv": [0, 0, 2, 2], "texture": "#0"},
				"down": {"uv": [0, 0, 2, 2], "texture": "#0"}
			}
		},
		{
			"name": "FN-FNC Dreamcatcher mag_13",
			"from": [7.4, 2.00321, 8.67667],
			"to": [8.6, 6.67798, 8.72319],
			"rotation": {"angle": 0, "axis": "y", "origin": [7.42728, 3.47649, 9.68078]},
			"faces": {
				"north": {"uv": [0, 0, 2, 2], "texture": "#0"},
				"east": {"uv": [0, 0, 2, 2], "texture": "#0"},
				"south": {"uv": [0, 0, 2, 2], "texture": "#0"},
				"west": {"uv": [0, 0, 2, 2], "texture": "#0"},
				"up": {"uv": [0, 0, 2, 2], "texture": "#0"},
				"down": {"uv": [0, 0, 2, 2], "texture": "#0"}
			}
		},
		{
			"name": "FN-FNC Dreamcatcher mag_14",
			"from": [7.4, 1.16593, 10.35122],
			"to": [8.6, 6.67798, 10.49077],
			"rotation": {"angle": 0, "axis": "y", "origin": [7.42728, 3.47649, 9.68078]},
			"faces": {
				"north": {"uv": [0, 0, 2, 2], "texture": "#0"},
				"east": {"uv": [0, 0, 2, 2], "texture": "#0"},
				"south": {"uv": [0, 0, 2, 2], "texture": "#0"},
				"west": {"uv": [0, 0, 2, 2], "texture": "#0"},
				"up": {"uv": [0, 0, 2, 2], "texture": "#0"},
				"down": {"uv": [0, 0, 2, 2], "texture": "#0"}
			}
		},
		{
			"name": "FN-FNC Dreamcatcher mag_15",
			"from": [7.4, 2.00321, 8.63016],
			"to": [8.6, 6.60821, 8.67667],
			"rotation": {"angle": 0, "axis": "y", "origin": [7.42728, 3.47649, 9.68078]},
			"faces": {
				"north": {"uv": [0, 0, 2, 2], "texture": "#0"},
				"east": {"uv": [0, 0, 2, 2], "texture": "#0"},
				"south": {"uv": [0, 0, 2, 2], "texture": "#0"},
				"west": {"uv": [0, 0, 2, 2], "texture": "#0"},
				"up": {"uv": [0, 0, 2, 2], "texture": "#0"},
				"down": {"uv": [0, 0, 2, 2], "texture": "#0"}
			}
		},
		{
			"name": "FN-FNC Dreamcatcher mag_16",
			"from": [7.4, 1.23571, 10.49077],
			"to": [8.6, 6.60821, 10.63031],
			"rotation": {"angle": 0, "axis": "y", "origin": [7.42728, 3.47649, 9.68078]},
			"faces": {
				"north": {"uv": [0, 0, 2, 2], "texture": "#0"},
				"east": {"uv": [0, 0, 2, 2], "texture": "#0"},
				"south": {"uv": [0, 0, 2, 2], "texture": "#0"},
				"west": {"uv": [0, 0, 2, 2], "texture": "#0"},
				"up": {"uv": [0, 0, 2, 2], "texture": "#0"},
				"down": {"uv": [0, 0, 2, 2], "texture": "#0"}
			}
		},
		{
			"name": "FN-FNC Dreamcatcher mag_17",
			"from": [7.4, 1.44502, 10.63031],
			"to": [8.6, 6.53844, 10.86289],
			"rotation": {"angle": 0, "axis": "y", "origin": [7.42728, 3.47649, 9.68078]},
			"faces": {
				"north": {"uv": [0, 0, 2, 2], "texture": "#0"},
				"east": {"uv": [0, 0, 2, 2], "texture": "#0"},
				"south": {"uv": [0, 0, 2, 2], "texture": "#0"},
				"west": {"uv": [0, 0, 2, 2], "texture": "#0"},
				"up": {"uv": [0, 0, 2, 2], "texture": "#0"},
				"down": {"uv": [0, 0, 2, 2], "texture": "#0"}
			}
		},
		{
			"name": "FN-FNC Dreamcatcher mag_18",
			"from": [7.4, 2.00321, 10.86289],
			"to": [8.6, 6.46867, 10.95592],
			"rotation": {"angle": 0, "axis": "y", "origin": [7.42728, 3.47649, 9.68078]},
			"faces": {
				"north": {"uv": [0, 0, 2, 2], "texture": "#0"},
				"east": {"uv": [0, 0, 2, 2], "texture": "#0"},
				"south": {"uv": [0, 0, 2, 2], "texture": "#0"},
				"west": {"uv": [0, 0, 2, 2], "texture": "#0"},
				"up": {"uv": [0, 0, 2, 2], "texture": "#0"},
				"down": {"uv": [0, 0, 2, 2], "texture": "#0"}
			}
		},
		{
			"name": "FN-FNC Dreamcatcher mag_19",
			"from": [7.4, 2.07298, 8.58364],
			"to": [8.6, 6.39889, 8.63016],
			"rotation": {"angle": 0, "axis": "y", "origin": [7.42728, 3.47649, 9.68078]},
			"faces": {
				"north": {"uv": [0, 0, 2, 2], "texture": "#0"},
				"east": {"uv": [0, 0, 2, 2], "texture": "#0"},
				"south": {"uv": [0, 0, 2, 2], "texture": "#0"},
				"west": {"uv": [0, 0, 2, 2], "texture": "#0"},
				"up": {"uv": [0, 0, 2, 2], "texture": "#0"},
				"down": {"uv": [0, 0, 2, 2], "texture": "#0"}
			}
		},
		{
			"name": "FN-FNC Dreamcatcher mag_20",
			"from": [7.4, 3.18934, 10.95592],
			"to": [8.6, 6.39889, 11.09547],
			"rotation": {"angle": 0, "axis": "y", "origin": [7.42728, 3.47649, 9.68078]},
			"faces": {
				"north": {"uv": [0, 0, 2, 2], "texture": "#0"},
				"east": {"uv": [0, 0, 2, 2], "texture": "#0"},
				"south": {"uv": [0, 0, 2, 2], "texture": "#0"},
				"west": {"uv": [0, 0, 2, 2], "texture": "#0"},
				"up": {"uv": [0, 0, 2, 2], "texture": "#0"},
				"down": {"uv": [0, 0, 2, 2], "texture": "#0"}
			}
		},
		{
			"name": "FN-FNC Dreamcatcher mag_21",
			"from": [7.4, 3.67775, 11.09547],
			"to": [8.6, 6.32912, 11.23501],
			"rotation": {"angle": 0, "axis": "y", "origin": [7.42728, 3.47649, 9.68078]},
			"faces": {
				"north": {"uv": [0, 0, 2, 2], "texture": "#0"},
				"east": {"uv": [0, 0, 2, 2], "texture": "#0"},
				"south": {"uv": [0, 0, 2, 2], "texture": "#0"},
				"west": {"uv": [0, 0, 2, 2], "texture": "#0"},
				"up": {"uv": [0, 0, 2, 2], "texture": "#0"},
				"down": {"uv": [0, 0, 2, 2], "texture": "#0"}
			}
		},
		{
			"name": "FN-FNC Dreamcatcher mag_22",
			"from": [7.4, 4.30571, 11.23501],
			"to": [8.6, 6.25935, 11.32804],
			"rotation": {"angle": 0, "axis": "y", "origin": [7.42728, 3.47649, 9.68078]},
			"faces": {
				"north": {"uv": [0, 0, 2, 2], "texture": "#0"},
				"east": {"uv": [0, 0, 2, 2], "texture": "#0"},
				"south": {"uv": [0, 0, 2, 2], "texture": "#0"},
				"west": {"uv": [0, 0, 2, 2], "texture": "#0"},
				"up": {"uv": [0, 0, 2, 2], "texture": "#0"},
				"down": {"uv": [0, 0, 2, 2], "texture": "#0"}
			}
		},
		{
			"name": "FN-FNC Dreamcatcher mag_23",
			"from": [7.4, 4.72435, 11.32804],
			"to": [8.6, 6.18957, 11.37456],
			"rotation": {"angle": 0, "axis": "y", "origin": [7.42728, 3.47649, 9.68078]},
			"faces": {
				"north": {"uv": [0, 0, 2, 2], "texture": "#0"},
				"east": {"uv": [0, 0, 2, 2], "texture": "#0"},
				"south": {"uv": [0, 0, 2, 2], "texture": "#0"},
				"west": {"uv": [0, 0, 2, 2], "texture": "#0"},
				"up": {"uv": [0, 0, 2, 2], "texture": "#0"},
				"down": {"uv": [0, 0, 2, 2], "texture": "#0"}
			}
		},
		{
			"name": "FN-FNC Dreamcatcher mag_24",
			"from": [7.4, 2.07298, 8.53713],
			"to": [8.6, 5.91048, 8.58364],
			"rotation": {"angle": 0, "axis": "y", "origin": [7.42728, 3.47649, 9.68078]},
			"faces": {
				"north": {"uv": [0, 0, 2, 2], "texture": "#0"},
				"east": {"uv": [0, 0, 2, 2], "texture": "#0"},
				"south": {"uv": [0, 0, 2, 2], "texture": "#0"},
				"west": {"uv": [0, 0, 2, 2], "texture": "#0"},
				"up": {"uv": [0, 0, 2, 2], "texture": "#0"},
				"down": {"uv": [0, 0, 2, 2], "texture": "#0"}
			}
		},
		{
			"name": "FN-FNC Dreamcatcher mag_25",
			"from": [7.4, 5.28253, 11.37456],
			"to": [8.6, 5.91048, 11.42107],
			"rotation": {"angle": 0, "axis": "y", "origin": [7.42728, 3.47649, 9.68078]},
			"faces": {
				"north": {"uv": [0, 0, 2, 2], "texture": "#0"},
				"east": {"uv": [0, 0, 2, 2], "texture": "#0"},
				"south": {"uv": [0, 0, 2, 2], "texture": "#0"},
				"west": {"uv": [0, 0, 2, 2], "texture": "#0"},
				"up": {"uv": [0, 0, 2, 2], "texture": "#0"},
				"down": {"uv": [0, 0, 2, 2], "texture": "#0"}
			}
		},
		{
			"name": "FN-FNC Dreamcatcher mag_26",
			"from": [7.4, 2.07298, 8.49061],
			"to": [8.6, 5.56162, 8.53713],
			"rotation": {"angle": 0, "axis": "y", "origin": [7.42728, 3.47649, 9.68078]},
			"faces": {
				"north": {"uv": [0, 0, 2, 2], "texture": "#0"},
				"east": {"uv": [0, 0, 2, 2], "texture": "#0"},
				"south": {"uv": [0, 0, 2, 2], "texture": "#0"},
				"west": {"uv": [0, 0, 2, 2], "texture": "#0"},
				"up": {"uv": [0, 0, 2, 2], "texture": "#0"},
				"down": {"uv": [0, 0, 2, 2], "texture": "#0"}
			}
		},
		{
			"name": "FN-FNC Dreamcatcher mag_27",
			"from": [7.4, 2.07298, 8.4441],
			"to": [8.6, 5.28253, 8.49061],
			"rotation": {"angle": 0, "axis": "y", "origin": [7.42728, 3.47649, 9.68078]},
			"faces": {
				"north": {"uv": [0, 0, 2, 2], "texture": "#0"},
				"east": {"uv": [0, 0, 2, 2], "texture": "#0"},
				"south": {"uv": [0, 0, 2, 2], "texture": "#0"},
				"west": {"uv": [0, 0, 2, 2], "texture": "#0"},
				"up": {"uv": [0, 0, 2, 2], "texture": "#0"},
				"down": {"uv": [0, 0, 2, 2], "texture": "#0"}
			}
		},
		{
			"name": "FN-FNC Dreamcatcher mag_28",
			"from": [7.4, 2.14275, 8.39758],
			"to": [8.6, 4.93366, 8.4441],
			"rotation": {"angle": 0, "axis": "y", "origin": [7.42728, 3.47649, 9.68078]},
			"faces": {
				"north": {"uv": [0, 0, 2, 2], "texture": "#0"},
				"east": {"uv": [0, 0, 2, 2], "texture": "#0"},
				"south": {"uv": [0, 0, 2, 2], "texture": "#0"},
				"west": {"uv": [0, 0, 2, 2], "texture": "#0"},
				"up": {"uv": [0, 0, 2, 2], "texture": "#0"},
				"down": {"uv": [0, 0, 2, 2], "texture": "#0"}
			}
		},
		{
			"name": "FN-FNC Dreamcatcher mag_29",
			"from": [7.4, 2.14275, 8.35107],
			"to": [8.6, 4.5848, 8.39758],
			"rotation": {"angle": 0, "axis": "y", "origin": [7.42728, 3.47649, 9.68078]},
			"faces": {
				"north": {"uv": [0, 0, 2, 2], "texture": "#0"},
				"east": {"uv": [0, 0, 2, 2], "texture": "#0"},
				"south": {"uv": [0, 0, 2, 2], "texture": "#0"},
				"west": {"uv": [0, 0, 2, 2], "texture": "#0"},
				"up": {"uv": [0, 0, 2, 2], "texture": "#0"},
				"down": {"uv": [0, 0, 2, 2], "texture": "#0"}
			}
		},
		{
			"name": "FN-FNC Dreamcatcher mag_30",
			"from": [7.4, 4.02662, 11.23501],
			"to": [8.6, 4.30571, 11.28153],
			"rotation": {"angle": 0, "axis": "y", "origin": [7.42728, 3.47649, 9.68078]},
			"faces": {
				"north": {"uv": [0, 0, 2, 2], "texture": "#0"},
				"east": {"uv": [0, 0, 2, 2], "texture": "#0"},
				"south": {"uv": [0, 0, 2, 2], "texture": "#0"},
				"west": {"uv": [0, 0, 2, 2], "texture": "#0"},
				"up": {"uv": [0, 0, 2, 2], "texture": "#0"},
				"down": {"uv": [0, 0, 2, 2], "texture": "#0"}
			}
		},
		{
			"name": "FN-FNC Dreamcatcher mag_31",
			"from": [7.4, 2.14275, 8.30455],
			"to": [8.6, 4.23594, 8.35107],
			"rotation": {"angle": 0, "axis": "y", "origin": [7.42728, 3.47649, 9.68078]},
			"faces": {
				"north": {"uv": [0, 0, 2, 2], "texture": "#0"},
				"east": {"uv": [0, 0, 2, 2], "texture": "#0"},
				"south": {"uv": [0, 0, 2, 2], "texture": "#0"},
				"west": {"uv": [0, 0, 2, 2], "texture": "#0"},
				"up": {"uv": [0, 0, 2, 2], "texture": "#0"},
				"down": {"uv": [0, 0, 2, 2], "texture": "#0"}
			}
		},
		{
			"name": "FN-FNC Dreamcatcher mag_32",
			"from": [7.4, 2.21253, 8.25804],
			"to": [8.6, 3.95685, 8.30455],
			"rotation": {"angle": 0, "axis": "y", "origin": [7.42728, 3.47649, 9.68078]},
			"faces": {
				"north": {"uv": [0, 0, 2, 2], "texture": "#0"},
				"east": {"uv": [0, 0, 2, 2], "texture": "#0"},
				"south": {"uv": [0, 0, 2, 2], "texture": "#0"},
				"west": {"uv": [0, 0, 2, 2], "texture": "#0"},
				"up": {"uv": [0, 0, 2, 2], "texture": "#0"},
				"down": {"uv": [0, 0, 2, 2], "texture": "#0"}
			}
		},
		{
			"name": "FN-FNC Dreamcatcher mag_33",
			"from": [7.4, 2.21253, 8.21152],
			"to": [8.6, 3.74753, 8.25804],
			"rotation": {"angle": 0, "axis": "y", "origin": [7.42728, 3.47649, 9.68078]},
			"faces": {
				"north": {"uv": [0, 0, 2, 2], "texture": "#0"},
				"east": {"uv": [0, 0, 2, 2], "texture": "#0"},
				"south": {"uv": [0, 0, 2, 2], "texture": "#0"},
				"west": {"uv": [0, 0, 2, 2], "texture": "#0"},
				"up": {"uv": [0, 0, 2, 2], "texture": "#0"},
				"down": {"uv": [0, 0, 2, 2], "texture": "#0"}
			}
		},
		{
			"name": "FN-FNC Dreamcatcher mag_34",
			"from": [7.4, 3.39866, 11.09547],
			"to": [8.6, 3.67775, 11.1885],
			"rotation": {"angle": 0, "axis": "y", "origin": [7.42728, 3.47649, 9.68078]},
			"faces": {
				"north": {"uv": [0, 0, 2, 2], "texture": "#0"},
				"east": {"uv": [0, 0, 2, 2], "texture": "#0"},
				"south": {"uv": [0, 0, 2, 2], "texture": "#0"},
				"west": {"uv": [0, 0, 2, 2], "texture": "#0"},
				"up": {"uv": [0, 0, 2, 2], "texture": "#0"},
				"down": {"uv": [0, 0, 2, 2], "texture": "#0"}
			}
		},
		{
			"name": "FN-FNC Dreamcatcher mag_35",
			"from": [7.4, 2.21253, 8.16501],
			"to": [8.6, 3.46844, 8.21152],
			"rotation": {"angle": 0, "axis": "y", "origin": [7.42728, 3.47649, 9.68078]},
			"faces": {
				"north": {"uv": [0, 0, 2, 2], "texture": "#0"},
				"east": {"uv": [0, 0, 2, 2], "texture": "#0"},
				"south": {"uv": [0, 0, 2, 2], "texture": "#0"},
				"west": {"uv": [0, 0, 2, 2], "texture": "#0"},
				"up": {"uv": [0, 0, 2, 2], "texture": "#0"},
				"down": {"uv": [0, 0, 2, 2], "texture": "#0"}
			}
		},
		{
			"name": "FN-FNC Dreamcatcher mag_36",
			"from": [7.4, 3.18934, 11.09547],
			"to": [8.6, 3.39866, 11.14198],
			"rotation": {"angle": 0, "axis": "y", "origin": [7.42728, 3.47649, 9.68078]},
			"faces": {
				"north": {"uv": [0, 0, 2, 2], "texture": "#0"},
				"east": {"uv": [0, 0, 2, 2], "texture": "#0"},
				"south": {"uv": [0, 0, 2, 2], "texture": "#0"},
				"west": {"uv": [0, 0, 2, 2], "texture": "#0"},
				"up": {"uv": [0, 0, 2, 2], "texture": "#0"},
				"down": {"uv": [0, 0, 2, 2], "texture": "#0"}
			}
		},
		{
			"name": "FN-FNC Dreamcatcher mag_37",
			"from": [7.4, 2.2823, 8.11849],
			"to": [8.6, 3.25912, 8.16501],
			"rotation": {"angle": 0, "axis": "y", "origin": [7.42728, 3.47649, 9.68078]},
			"faces": {
				"north": {"uv": [0, 0, 2, 2], "texture": "#0"},
				"east": {"uv": [0, 0, 2, 2], "texture": "#0"},
				"south": {"uv": [0, 0, 2, 2], "texture": "#0"},
				"west": {"uv": [0, 0, 2, 2], "texture": "#0"},
				"up": {"uv": [0, 0, 2, 2], "texture": "#0"},
				"down": {"uv": [0, 0, 2, 2], "texture": "#0"}
			}
		},
		{
			"name": "FN-FNC Dreamcatcher mag_38",
			"from": [7.4, 2.42184, 10.95592],
			"to": [8.6, 3.18934, 11.04895],
			"rotation": {"angle": 0, "axis": "y", "origin": [7.42728, 3.47649, 9.68078]},
			"faces": {
				"north": {"uv": [0, 0, 2, 2], "texture": "#0"},
				"east": {"uv": [0, 0, 2, 2], "texture": "#0"},
				"south": {"uv": [0, 0, 2, 2], "texture": "#0"},
				"west": {"uv": [0, 0, 2, 2], "texture": "#0"},
				"up": {"uv": [0, 0, 2, 2], "texture": "#0"},
				"down": {"uv": [0, 0, 2, 2], "texture": "#0"}
			}
		},
		{
			"name": "FN-FNC Dreamcatcher mag_39",
			"from": [7.4, 2.84048, 11.04895],
			"to": [8.6, 3.11957, 11.09547],
			"rotation": {"angle": 0, "axis": "y", "origin": [7.42728, 3.47649, 9.68078]},
			"faces": {
				"north": {"uv": [0, 0, 2, 2], "texture": "#0"},
				"east": {"uv": [0, 0, 2, 2], "texture": "#0"},
				"south": {"uv": [0, 0, 2, 2], "texture": "#0"},
				"west": {"uv": [0, 0, 2, 2], "texture": "#0"},
				"up": {"uv": [0, 0, 2, 2], "texture": "#0"},
				"down": {"uv": [0, 0, 2, 2], "texture": "#0"}
			}
		},
		{
			"name": "FN-FNC Dreamcatcher mag_40",
			"from": [7.4, 2.2823, 8.07198],
			"to": [8.6, 2.98003, 8.11849],
			"rotation": {"angle": 0, "axis": "y", "origin": [7.42728, 3.47649, 9.68078]},
			"faces": {
				"north": {"uv": [0, 0, 2, 2], "texture": "#0"},
				"east": {"uv": [0, 0, 2, 2], "texture": "#0"},
				"south": {"uv": [0, 0, 2, 2], "texture": "#0"},
				"west": {"uv": [0, 0, 2, 2], "texture": "#0"},
				"up": {"uv": [0, 0, 2, 2], "texture": "#0"},
				"down": {"uv": [0, 0, 2, 2], "texture": "#0"}
			}
		},
		{
			"name": "FN-FNC Dreamcatcher mag_41",
			"from": [7.4, 1.72412, 10.86289],
			"to": [8.6, 2.00321, 10.9094],
			"rotation": {"angle": 0, "axis": "y", "origin": [7.42728, 3.47649, 9.68078]},
			"faces": {
				"north": {"uv": [0, 0, 2, 2], "texture": "#0"},
				"east": {"uv": [0, 0, 2, 2], "texture": "#0"},
				"south": {"uv": [0, 0, 2, 2], "texture": "#0"},
				"west": {"uv": [0, 0, 2, 2], "texture": "#0"},
				"up": {"uv": [0, 0, 2, 2], "texture": "#0"},
				"down": {"uv": [0, 0, 2, 2], "texture": "#0"}
			}
		},
		{
			"name": "FN-FNC Dreamcatcher mag_42",
			"from": [7.4, 1.79389, 9.0488],
			"to": [8.6, 1.86366, 9.09531],
			"rotation": {"angle": 0, "axis": "y", "origin": [7.42728, 3.47649, 9.68078]},
			"faces": {
				"north": {"uv": [0, 0, 2, 2], "texture": "#0"},
				"east": {"uv": [0, 0, 2, 2], "texture": "#0"},
				"south": {"uv": [0, 0, 2, 2], "texture": "#0"},
				"west": {"uv": [0, 0, 2, 2], "texture": "#0"},
				"up": {"uv": [0, 0, 2, 2], "texture": "#0"},
				"down": {"uv": [0, 0, 2, 2], "texture": "#0"}
			}
		},
		{
			"name": "FN-FNC Dreamcatcher mag_43",
			"from": [7.4, 1.72412, 9.14183],
			"to": [8.6, 1.79389, 9.23486],
			"rotation": {"angle": 0, "axis": "y", "origin": [7.42728, 3.47649, 9.68078]},
			"faces": {
				"north": {"uv": [0, 0, 2, 2], "texture": "#0"},
				"east": {"uv": [0, 0, 2, 2], "texture": "#0"},
				"south": {"uv": [0, 0, 2, 2], "texture": "#0"},
				"west": {"uv": [0, 0, 2, 2], "texture": "#0"},
				"up": {"uv": [0, 0, 2, 2], "texture": "#0"},
				"down": {"uv": [0, 0, 2, 2], "texture": "#0"}
			}
		},
		{
			"name": "FN-FNC Dreamcatcher mag_44",
			"from": [7.4, 1.65434, 9.28137],
			"to": [8.6, 1.72412, 9.42092],
			"rotation": {"angle": 0, "axis": "y", "origin": [7.42728, 3.47649, 9.68078]},
			"faces": {
				"north": {"uv": [0, 0, 2, 2], "texture": "#0"},
				"east": {"uv": [0, 0, 2, 2], "texture": "#0"},
				"south": {"uv": [0, 0, 2, 2], "texture": "#0"},
				"west": {"uv": [0, 0, 2, 2], "texture": "#0"},
				"up": {"uv": [0, 0, 2, 2], "texture": "#0"},
				"down": {"uv": [0, 0, 2, 2], "texture": "#0"}
			}
		},
		{
			"name": "FN-FNC Dreamcatcher mag_45",
			"from": [7.4, 1.58457, 9.46743],
			"to": [8.6, 1.65434, 9.60698],
			"rotation": {"angle": 0, "axis": "y", "origin": [7.42728, 3.47649, 9.68078]},
			"faces": {
				"north": {"uv": [0, 0, 2, 2], "texture": "#0"},
				"east": {"uv": [0, 0, 2, 2], "texture": "#0"},
				"south": {"uv": [0, 0, 2, 2], "texture": "#0"},
				"west": {"uv": [0, 0, 2, 2], "texture": "#0"},
				"up": {"uv": [0, 0, 2, 2], "texture": "#0"},
				"down": {"uv": [0, 0, 2, 2], "texture": "#0"}
			}
		},
		{
			"name": "FN-FNC Dreamcatcher mag_46",
			"from": [7.4, 1.37525, 9.88607],
			"to": [8.6, 1.44502, 9.93259],
			"rotation": {"angle": 0, "axis": "y", "origin": [7.42728, 3.47649, 9.68078]},
			"faces": {
				"north": {"uv": [0, 0, 2, 2], "texture": "#0"},
				"east": {"uv": [0, 0, 2, 2], "texture": "#0"},
				"south": {"uv": [0, 0, 2, 2], "texture": "#0"},
				"west": {"uv": [0, 0, 2, 2], "texture": "#0"},
				"up": {"uv": [0, 0, 2, 2], "texture": "#0"},
				"down": {"uv": [0, 0, 2, 2], "texture": "#0"}
			}
		},
		{
			"name": "FN-FNC Dreamcatcher mag_47",
			"from": [7.4, 1.37525, 10.63031],
			"to": [8.6, 1.44502, 10.76986],
			"rotation": {"angle": 0, "axis": "y", "origin": [7.42728, 3.47649, 9.68078]},
			"faces": {
				"north": {"uv": [0, 0, 2, 2], "texture": "#0"},
				"east": {"uv": [0, 0, 2, 2], "texture": "#0"},
				"south": {"uv": [0, 0, 2, 2], "texture": "#0"},
				"west": {"uv": [0, 0, 2, 2], "texture": "#0"},
				"up": {"uv": [0, 0, 2, 2], "texture": "#0"},
				"down": {"uv": [0, 0, 2, 2], "texture": "#0"}
			}
		},
		{
			"name": "FN-FNC Dreamcatcher mag_48",
			"from": [7.4, 1.30548, 10.63031],
			"to": [8.6, 1.37525, 10.67683],
			"rotation": {"angle": 0, "axis": "y", "origin": [7.42728, 3.47649, 9.68078]},
			"faces": {
				"north": {"uv": [0, 0, 2, 2], "texture": "#0"},
				"east": {"uv": [0, 0, 2, 2], "texture": "#0"},
				"south": {"uv": [0, 0, 2, 2], "texture": "#0"},
				"west": {"uv": [0, 0, 2, 2], "texture": "#0"},
				"up": {"uv": [0, 0, 2, 2], "texture": "#0"},
				"down": {"uv": [0, 0, 2, 2], "texture": "#0"}
			}
		},
		{
			"name": "FN-FNC Dreamcatcher mag_49",
			"from": [7.4, 1.23571, 10.21168],
			"to": [8.6, 1.30548, 10.35122],
			"rotation": {"angle": 0, "axis": "y", "origin": [7.42728, 3.47649, 9.68078]},
			"faces": {
				"north": {"uv": [0, 0, 2, 2], "texture": "#0"},
				"east": {"uv": [0, 0, 2, 2], "texture": "#0"},
				"south": {"uv": [0, 0, 2, 2], "texture": "#0"},
				"west": {"uv": [0, 0, 2, 2], "texture": "#0"},
				"up": {"uv": [0, 0, 2, 2], "texture": "#0"},
				"down": {"uv": [0, 0, 2, 2], "texture": "#0"}
			}
		},
		{
			"name": "FN-FNC Dreamcatcher mag_50",
			"from": [7.4, 1.16593, 10.30471],
			"to": [8.6, 1.23571, 10.35122],
			"rotation": {"angle": 0, "axis": "y", "origin": [7.42728, 3.47649, 9.68078]},
			"faces": {
				"north": {"uv": [0, 0, 2, 2], "texture": "#0"},
				"east": {"uv": [0, 0, 2, 2], "texture": "#0"},
				"south": {"uv": [0, 0, 2, 2], "texture": "#0"},
				"west": {"uv": [0, 0, 2, 2], "texture": "#0"},
				"up": {"uv": [0, 0, 2, 2], "texture": "#0"},
				"down": {"uv": [0, 0, 2, 2], "texture": "#0"}
			}
		},
		{
			"name": "FN-FNC Dreamcatcher mag_51",
			"from": [7.4, 1.16593, 10.49077],
			"to": [8.6, 1.23571, 10.53728],
			"rotation": {"angle": 0, "axis": "y", "origin": [7.42728, 3.47649, 9.68078]},
			"faces": {
				"north": {"uv": [0, 0, 2, 2], "texture": "#0"},
				"east": {"uv": [0, 0, 2, 2], "texture": "#0"},
				"south": {"uv": [0, 0, 2, 2], "texture": "#0"},
				"west": {"uv": [0, 0, 2, 2], "texture": "#0"},
				"up": {"uv": [0, 0, 2, 2], "texture": "#0"},
				"down": {"uv": [0, 0, 2, 2], "texture": "#0"}
			}
		}
	],
	"groups": [
		{
			"name": "FN-FNC Dreamcatcher mag",
			"origin": [8, 8, 8],
			"children": [0, 1, 2, 3, 4, 5, 6, 7, 8, 9, 10, 11, 12, 13, 14, 15, 16, 17, 18, 19, 20, 21, 22, 23, 24, 25, 26, 27, 28, 29, 30, 31, 32, 33, 34, 35, 36, 37, 38, 39, 40, 41, 42, 43, 44, 45, 46, 47, 48, 49, 50, 51]
		}
	]
}