{
	"credit": "Made with Blockbench",
	"textures": {
		"0": "ava:item/gun_effects/fire",
		"1": "ava:item/gun_effects/fire2"
	},
	"elements": [
		{
			"name": "cube2",
			"from": [7.575, 7.7, -13.0002],
			"to": [8.425, 8.55, -10.0002],
			"rotation": {"angle": 0, "axis": "y", "origin": [15, 15, -4]},
			"faces": {
				"north": {"uv": [0, 0, 16, 16], "texture": "#1"},
				"east": {"uv": [0, 0, 16, 16], "texture": "#1"},
				"south": {"uv": [0, 0, 16, 16], "texture": "#1"},
				"west": {"uv": [0, 0, 16, 16], "texture": "#1"},
				"up": {"uv": [0, 0, 16, 16], "texture": "#1"},
				"down": {"uv": [0, 0, 16, 16], "texture": "#1"}
			}
		},
		{
			"from": [6.25, 6.1, -10.001],
			"to": [9.75, 10.1, -10],
			"rotation": {"angle": 0, "axis": "y", "origin": [15, 15, -2]},
			"faces": {
				"north": {"uv": [0, 0, 16, 16], "texture": "#0"},
				"east": {"uv": [0, 0, 16, 16], "texture": "#0"},
				"south": {"uv": [0, 0, 16, 16], "texture": "#0"},
				"west": {"uv": [0, 0, 16, 16], "texture": "#0"},
				"up": {"uv": [0, 0, 16, 16], "texture": "#0"},
				"down": {"uv": [0, 0, 16, 16], "texture": "#0"}
			}
		}
	]
}